<?xml version="1.0" encoding="UTF-8" ?>
<gpx version="1.1" creator="Reficio - http://reficio.cc" xmlns="http://www.topografix.com/GPX/1/1" xmlns:xsi="http://www.w3.org/2001/XMLSchema-instance" xsi:schemaLocation="http://www.topografix.com/GPX/1/1 http://www.topografix.com/GPX/1/1/gpx.xsd">
	<metadata>
		<name>Cemeteries of the City of Rio de Janeiro</name>
		<desc>GeoNames geographical database</desc>
		<author>
			<name>Halley Pacheco de Oliveira</name>
			<email id="reficio" domain="reficio.cc" />
			<link href="http://reficio.cc/">
				<text>Reficio</text>
			</link>
		</author>
	</metadata>
	<wpt lat="-22.91924" lon="-43.69199">
		<name>Cemitério Santa Cruz</name>
		<desc>GeoNames - id: 7537435</desc>
	</wpt>
	<wpt lat="-22.94771" lon="-43.6305">
		<name>Cemitério Jardim da Saudade</name>
		<desc>GeoNames - id: 7537587</desc>
	</wpt>
	<wpt lat="-23.01126" lon="-43.52055">
		<name>Cemitério de Piabas</name>
		<desc>GeoNames - id: 7537685</desc>
	</wpt>
	<wpt lat="-22.98456" lon="-43.5576">
		<name>Cemitério de Guaratiba</name>
		<desc>GeoNames - id: 7537701</desc>
	</wpt>
	<wpt lat="-22.90729" lon="-43.57305">
		<name>Cemitério de Campo Grande</name>
		<desc>GeoNames - id: 7537784</desc>
	</wpt>
	<wpt lat="-22.88474" lon="-43.44725">
		<name>Cemitério Murundu</name>
		<desc>GeoNames - id: 7537932</desc>
	</wpt>
	<wpt lat="-22.93128" lon="-43.35534">
		<name>Cemitério de Jacarepaguá</name>
		<desc>GeoNames - id: 7538143</desc>
	</wpt>
	<wpt lat="-22.89025" lon="-43.40221">
		<name>Cemitério Jardim de Saudade</name>
		<desc>GeoNames - id: 7538173</desc>
	</wpt>
	<wpt lat="-22.84314" lon="-43.39907">
		<name>Cemitério de Ricardo de Albuquerque</name>
		<desc>GeoNames - id: 7538200</desc>
	</wpt>
	<wpt lat="-22.83207" lon="-43.32269">
		<name>Cemitério Irajá</name>
		<desc>GeoNames - id: 7538298</desc>
	</wpt>
	<wpt lat="-22.87704" lon="-43.2813">
		<name>Cemitério de Inhaúma</name>
		<desc>GeoNames - id: 7538351</desc>
	</wpt>
	<wpt lat="-22.95869" lon="-43.18733">
		<name>Cemitério São João Batista</name>
		<desc>GeoNames - id: 7538589</desc>
	</wpt>
	<wpt lat="-22.88425" lon="-43.22159">
		<name>Cemitério São Francisco Xavier</name>
		<desc>GeoNames - id: 7538664</desc>
	</wpt>
	<wpt lat="-22.89824" lon="-43.19691">
		<name>Cemitério dos Ingleses</name>
		<desc>GeoNames - id: 7538670</desc>
	</wpt>
	<wpt lat="-22.81171" lon="-43.18735">
		<name>Cemitério da Cacuia</name>
		<desc>GeoNames - id: 7538740</desc>
	</wpt>
	<wpt lat="-22.91848" lon="-43.1969">
		<name>Cemitério São Francisco de Paula</name>
		<desc>GeoNames - id: 7538846</desc>
	</wpt>
</gpx>