<?xml version="1.0" encoding="UTF-8" ?>
<gpx version="1.1" creator="Reficio - http://reficio.cc" xmlns="http://www.topografix.com/GPX/1/1" xmlns:xsi="http://www.w3.org/2001/XMLSchema-instance" xsi:schemaLocation="http://www.topografix.com/GPX/1/1 http://www.topografix.com/GPX/1/1/gpx.xsd">
	<metadata>
		<name>Trams in the City of Rio de Janeiro</name>
		<desc>Portal de Dados Geográficos Abertos da Cidade do Rio de Janeiro</desc>
		<author>
			<name>Halley Pacheco de Oliveira</name>
			<email id="reficio" domain="reficio.cc" />
			<link href="http://reficio.cc/">
				<text>Reficio</text>
			</link>
		</author>
	</metadata>
	<wpt lat="-22.910208998275415" lon="-43.17862579998691">
		<name>Carioca</name>
		<desc>Bonde Santa Teresa</desc>
	</wpt>
	<wpt lat="-22.918791426495414" lon="-43.183224791233386">
		<name>Curvelo</name>
		<desc>Bonde Santa Teresa</desc>
	</wpt>
	<wpt lat="-22.940600369940864" lon="-43.19845624995605">
		<name>Corcovado</name>
		<desc>Estrada de Ferro do Corcovado</desc>
	</wpt>
	<wpt lat="-22.947234567198844" lon="-43.21750332302325">
		<name>Paineiras</name>
		<desc>Estrada de Ferro do Corcovado</desc>
	</wpt>
	<wpt lat="-22.951768011388687" lon="-43.211146021675965">
		<name>Alto Corcovado</name>
		<desc>Estrada de Ferro do Corcovado</desc>
	</wpt>
	<trk>
		<name>Bonde Santa Teresa</name>
		<trkseg>
			<trkpt lat="-22.921432217417145" lon="-43.18618067813332"></trkpt>
			<trkpt lat="-22.921441924795754" lon="-43.18613716585792"></trkpt>
			<trkpt lat="-22.92143931065672" lon="-43.18610600519962"></trkpt>
			<trkpt lat="-22.921427852224095" lon="-43.18608314999325"></trkpt>
			<trkpt lat="-22.921401101877738" lon="-43.186057672487756"></trkpt>
			<trkpt lat="-22.921367492703222" lon="-43.186024584835074"></trkpt>
			<trkpt lat="-22.921347609564226" lon="-43.1859995021038"></trkpt>
		</trkseg>
		<trkseg>
			<trkpt lat="-22.921432217417145" lon="-43.18618067813332"></trkpt>
			<trkpt lat="-22.92146707755785" lon="-43.18607824104478"></trkpt>
			<trkpt lat="-22.921487006800014" lon="-43.18598877454265"></trkpt>
			<trkpt lat="-22.921498427302346" lon="-43.18591600643481"></trkpt>
		</trkseg>
		<trkseg>
			<trkpt lat="-22.921432217417145" lon="-43.18618067813332"></trkpt>
			<trkpt lat="-22.92127010256833" lon="-43.186645415845135"></trkpt>
			<trkpt lat="-22.921085506796874" lon="-43.18718171653721"></trkpt>
			<trkpt lat="-22.921067669175788" lon="-43.18728041564033"></trkpt>
		</trkseg>
		<trkseg>
			<trkpt lat="-22.921347609564226" lon="-43.1859995021038"></trkpt>
			<trkpt lat="-22.92138070442342" lon="-43.18600325331357"></trkpt>
			<trkpt lat="-22.921417061194553" lon="-43.186000234713305"></trkpt>
			<trkpt lat="-22.92145382730402" lon="-43.18597761577738"></trkpt>
			<trkpt lat="-22.921480258583106" lon="-43.18595142874518"></trkpt>
			<trkpt lat="-22.921498427302346" lon="-43.18591600643481"></trkpt>
		</trkseg>
		<trkseg>
			<trkpt lat="-22.921347609564226" lon="-43.1859995021038"></trkpt>
			<trkpt lat="-22.921340205320003" lon="-43.18599417220618"></trkpt>
			<trkpt lat="-22.921317289202864" lon="-43.18597767845068"></trkpt>
			<trkpt lat="-22.9212612629718" lon="-43.18592695055046"></trkpt>
			<trkpt lat="-22.921214548964944" lon="-43.18587707515709"></trkpt>
			<trkpt lat="-22.921163306430923" lon="-43.185818289350294"></trkpt>
			<trkpt lat="-22.921106982393535" lon="-43.18576512912156"></trkpt>
			<trkpt lat="-22.921041869398405" lon="-43.18570955015328"></trkpt>
			<trkpt lat="-22.92095907517183" lon="-43.18566327415237"></trkpt>
			<trkpt lat="-22.9208728388218" lon="-43.18561616699464"></trkpt>
			<trkpt lat="-22.920788533882085" lon="-43.185572152883395"></trkpt>
			<trkpt lat="-22.92072782736365" lon="-43.185554438438174"></trkpt>
			<trkpt lat="-22.920665682857692" lon="-43.18554512690794"></trkpt>
			<trkpt lat="-22.920584662498825" lon="-43.185543574841475"></trkpt>
			<trkpt lat="-22.92048361059603" lon="-43.18555915373566"></trkpt>
			<trkpt lat="-22.920364176701046" lon="-43.185586188411385"></trkpt>
			<trkpt lat="-22.920263196596355" lon="-43.18561599927288"></trkpt>
			<trkpt lat="-22.920190472377445" lon="-43.18564494622882"></trkpt>
			<trkpt lat="-22.920121190643258" lon="-43.185682816628876"></trkpt>
			<trkpt lat="-22.92009047949289" lon="-43.18570584231001"></trkpt>
			<trkpt lat="-22.92005862811652" lon="-43.185739704635864"></trkpt>
			<trkpt lat="-22.920013613432875" lon="-43.1858070836884"></trkpt>
			<trkpt lat="-22.91997658065319" lon="-43.18584588912116"></trkpt>
			<trkpt lat="-22.919917907771534" lon="-43.185911205595154"></trkpt>
			<trkpt lat="-22.919851306292554" lon="-43.1859781896526"></trkpt>
			<trkpt lat="-22.91976655553132" lon="-43.186029523587585"></trkpt>
			<trkpt lat="-22.91970518445312" lon="-43.18606416828688"></trkpt>
			<trkpt lat="-22.919642079980523" lon="-43.18609737338067"></trkpt>
			<trkpt lat="-22.919496539277244" lon="-43.18620264716679"></trkpt>
			<trkpt lat="-22.91932416913061" lon="-43.18632290027476"></trkpt>
		</trkseg>
		<trkseg>
			<trkpt lat="-22.921498427302346" lon="-43.18591600643481"></trkpt>
			<trkpt lat="-22.921499547903633" lon="-43.185908862012525"></trkpt>
			<trkpt lat="-22.921530556615302" lon="-43.185730046764704"></trkpt>
			<trkpt lat="-22.921553791372833" lon="-43.18556644517616"></trkpt>
		</trkseg>
		<trkseg>
			<trkpt lat="-22.921067669175788" lon="-43.18728041564033"></trkpt>
			<trkpt lat="-22.92111722714759" lon="-43.18713635213307"></trkpt>
			<trkpt lat="-22.921193989284678" lon="-43.18692319741384"></trkpt>
			<trkpt lat="-22.92132578260774" lon="-43.18655518082573"></trkpt>
			<trkpt lat="-22.92141471180587" lon="-43.18631622455679"></trkpt>
			<trkpt lat="-22.921467861559783" lon="-43.18614686309486"></trkpt>
			<trkpt lat="-22.921519035743025" lon="-43.1859626110219"></trkpt>
			<trkpt lat="-22.921539015479873" lon="-43.18586973089973"></trkpt>
			<trkpt lat="-22.921547949777253" lon="-43.185796438853494"></trkpt>
		</trkseg>
		<trkseg>
			<trkpt lat="-22.921067669175788" lon="-43.18728041564033"></trkpt>
			<trkpt lat="-22.921031758207505" lon="-43.187369997670224"></trkpt>
			<trkpt lat="-22.920962876272952" lon="-43.18754580628706"></trkpt>
			<trkpt lat="-22.92095244488903" lon="-43.187573339414946"></trkpt>
			<trkpt lat="-22.92093638230235" lon="-43.18759802212368"></trkpt>
			<trkpt lat="-22.920909013114244" lon="-43.187621199192535"></trkpt>
			<trkpt lat="-22.920875980031045" lon="-43.18763070472688"></trkpt>
			<trkpt lat="-22.92083758138798" lon="-43.18763687011392"></trkpt>
			<trkpt lat="-22.920801441608457" lon="-43.18762740641544"></trkpt>
			<trkpt lat="-22.9206019039998" lon="-43.18753530386923"></trkpt>
			<trkpt lat="-22.920405825380303" lon="-43.18743789052223"></trkpt>
			<trkpt lat="-22.920395390872685" lon="-43.187433544676665"></trkpt>
			<trkpt lat="-22.920373830421877" lon="-43.187427494701915"></trkpt>
			<trkpt lat="-22.92034970581233" lon="-43.18742635301417"></trkpt>
			<trkpt lat="-22.920325549522406" lon="-43.18743028202766"></trkpt>
			<trkpt lat="-22.92029771945421" lon="-43.18744469055546"></trkpt>
			<trkpt lat="-22.92027521837115" lon="-43.18745912487121"></trkpt>
			<trkpt lat="-22.920161310845707" lon="-43.18764596341268"></trkpt>
			<trkpt lat="-22.92002890101541" lon="-43.1878732122443"></trkpt>
			<trkpt lat="-22.919991259384172" lon="-43.18793786005584"></trkpt>
			<trkpt lat="-22.919890957933795" lon="-43.18811418295585"></trkpt>
			<trkpt lat="-22.91988565990283" lon="-43.18813267823783"></trkpt>
			<trkpt lat="-22.91987443650665" lon="-43.18816996994404"></trkpt>
			<trkpt lat="-22.919872933355887" lon="-43.188204403178496"></trkpt>
			<trkpt lat="-22.91988273872956" lon="-43.18824073292633"></trkpt>
			<trkpt lat="-22.919903302379193" lon="-43.18827009525182"></trkpt>
			<trkpt lat="-22.919995812462748" lon="-43.188344807387836"></trkpt>
			<trkpt lat="-22.920025020989247" lon="-43.18836728354208"></trkpt>
		</trkseg>
		<trkseg>
			<trkpt lat="-22.921553791372833" lon="-43.18556644517616"></trkpt>
			<trkpt lat="-22.921562935499672" lon="-43.18567843020987"></trkpt>
		</trkseg>
		<trkseg>
			<trkpt lat="-22.921553791372833" lon="-43.18556644517616"></trkpt>
			<trkpt lat="-22.921554880862004" lon="-43.18555911866996"></trkpt>
			<trkpt lat="-22.921561178154064" lon="-43.18545423452285"></trkpt>
			<trkpt lat="-22.921552738268385" lon="-43.18539526945799"></trkpt>
			<trkpt lat="-22.921509702881266" lon="-43.185319802893005"></trkpt>
			<trkpt lat="-22.921339809725804" lon="-43.18507990580202"></trkpt>
			<trkpt lat="-22.921231600934007" lon="-43.1849434998529"></trkpt>
			<trkpt lat="-22.92112191525018" lon="-43.1848278784869"></trkpt>
			<trkpt lat="-22.92109943808197" lon="-43.18480487882617"></trkpt>
			<trkpt lat="-22.92104170017476" lon="-43.184778253818386"></trkpt>
			<trkpt lat="-22.92097838746911" lon="-43.18476154954498"></trkpt>
			<trkpt lat="-22.920865567461185" lon="-43.18475886095684"></trkpt>
			<trkpt lat="-22.92084787662757" lon="-43.18475959376895"></trkpt>
		</trkseg>
		<trkseg>
			<trkpt lat="-22.921547949777253" lon="-43.185796438853494"></trkpt>
			<trkpt lat="-22.921555939318488" lon="-43.18571918674439"></trkpt>
			<trkpt lat="-22.921562935499672" lon="-43.18567843020987"></trkpt>
		</trkseg>
		<trkseg>
			<trkpt lat="-22.921547949777253" lon="-43.185796438853494"></trkpt>
			<trkpt lat="-22.921552183218395" lon="-43.18586828898638"></trkpt>
			<trkpt lat="-22.92156377549649" lon="-43.185950219910865"></trkpt>
			<trkpt lat="-22.92160483447239" lon="-43.18606626882743"></trkpt>
			<trkpt lat="-22.921668603270344" lon="-43.18624138580268"></trkpt>
			<trkpt lat="-22.921698741569042" lon="-43.186334182972814"></trkpt>
			<trkpt lat="-22.92171499315763" lon="-43.18642092622628"></trkpt>
			<trkpt lat="-22.921713558802455" lon="-43.186532470780705"></trkpt>
			<trkpt lat="-22.92169306454414" lon="-43.186698961328005"></trkpt>
			<trkpt lat="-22.921678302383764" lon="-43.18682169962352"></trkpt>
			<trkpt lat="-22.92167507793614" lon="-43.1868635662846"></trkpt>
			<trkpt lat="-22.921674453069084" lon="-43.18690373955935"></trkpt>
			<trkpt lat="-22.921680436474237" lon="-43.18694538425183"></trkpt>
			<trkpt lat="-22.921699380582133" lon="-43.18701473850504"></trkpt>
			<trkpt lat="-22.921766004489264" lon="-43.1872027847102"></trkpt>
			<trkpt lat="-22.921833820367635" lon="-43.187376580722"></trkpt>
			<trkpt lat="-22.921886702019012" lon="-43.187499979823265"></trkpt>
			<trkpt lat="-22.921901271949263" lon="-43.18753439446668"></trkpt>
			<trkpt lat="-22.92192557782567" lon="-43.18756721690727"></trkpt>
			<trkpt lat="-22.921983378823725" lon="-43.18763907647344"></trkpt>
			<trkpt lat="-22.922037814883144" lon="-43.18770084290292"></trkpt>
			<trkpt lat="-22.922120862011166" lon="-43.18776125227567"></trkpt>
			<trkpt lat="-22.92219238445568" lon="-43.18780105152097"></trkpt>
			<trkpt lat="-22.922273568725572" lon="-43.18784072227518"></trkpt>
			<trkpt lat="-22.922334944800596" lon="-43.187861742502704"></trkpt>
			<trkpt lat="-22.922384021188222" lon="-43.1878732759364"></trkpt>
			<trkpt lat="-22.922439723244846" lon="-43.187879846992104"></trkpt>
			<trkpt lat="-22.922489271347708" lon="-43.187877335677456"></trkpt>
			<trkpt lat="-22.922507374934774" lon="-43.18787319436072"></trkpt>
			<trkpt lat="-22.922548717261197" lon="-43.18786387101225"></trkpt>
			<trkpt lat="-22.92259436195192" lon="-43.187843765436156"></trkpt>
			<trkpt lat="-22.922725496289388" lon="-43.18777368193432"></trkpt>
			<trkpt lat="-22.922967952451835" lon="-43.18762256552901"></trkpt>
			<trkpt lat="-22.92301433039907" lon="-43.187595528833256"></trkpt>
			<trkpt lat="-22.923056251355774" lon="-43.187581420084655"></trkpt>
			<trkpt lat="-22.92312733327051" lon="-43.18756682526784"></trkpt>
			<trkpt lat="-22.923278590392012" lon="-43.187574561255325"></trkpt>
			<trkpt lat="-22.92341636116696" lon="-43.18758754708641"></trkpt>
			<trkpt lat="-22.923472725869683" lon="-43.187588844075115"></trkpt>
			<trkpt lat="-22.923516347535653" lon="-43.18758933684971"></trkpt>
			<trkpt lat="-22.923546193558874" lon="-43.18758543008172"></trkpt>
			<trkpt lat="-22.9235899724566" lon="-43.18756798164536"></trkpt>
			<trkpt lat="-22.923634858741817" lon="-43.18754476710208"></trkpt>
			<trkpt lat="-22.923702900046266" lon="-43.187485172783795"></trkpt>
			<trkpt lat="-22.923783504444266" lon="-43.18740289060615"></trkpt>
			<trkpt lat="-22.92382886251795" lon="-43.18736553437647"></trkpt>
			<trkpt lat="-22.923877244805823" lon="-43.18734003012292"></trkpt>
			<trkpt lat="-22.923904063544118" lon="-43.18733206965141"></trkpt>
			<trkpt lat="-22.92393327762628" lon="-43.1873281712196"></trkpt>
			<trkpt lat="-22.92396614297917" lon="-43.18732773385394"></trkpt>
			<trkpt lat="-22.924003335084645" lon="-43.18733445298144"></trkpt>
			<trkpt lat="-22.924063373692256" lon="-43.1873649481389"></trkpt>
			<trkpt lat="-22.924134043796524" lon="-43.18741704214446"></trkpt>
			<trkpt lat="-22.924197094446285" lon="-43.187474013843534"></trkpt>
			<trkpt lat="-22.92423511405005" lon="-43.18752956588007"></trkpt>
			<trkpt lat="-22.924259160484354" lon="-43.187571263847865"></trkpt>
			<trkpt lat="-22.92427334340779" lon="-43.18761133755935"></trkpt>
			<trkpt lat="-22.924270150971807" lon="-43.18767182475833"></trkpt>
			<trkpt lat="-22.924256831322037" lon="-43.18772328097975"></trkpt>
			<trkpt lat="-22.92418411313465" lon="-43.18783987133137"></trkpt>
			<trkpt lat="-22.924167426848093" lon="-43.18787324107046"></trkpt>
			<trkpt lat="-22.924113928577352" lon="-43.18798060599097"></trkpt>
			<trkpt lat="-22.924096806676793" lon="-43.18802333923147"></trkpt>
			<trkpt lat="-22.92408530928516" lon="-43.18808403352316"></trkpt>
			<trkpt lat="-22.92408436109828" lon="-43.18812762479152"></trkpt>
			<trkpt lat="-22.924095238918582" lon="-43.18817866234355"></trkpt>
			<trkpt lat="-22.924128320904646" lon="-43.188228818935684"></trkpt>
			<trkpt lat="-22.924170719012952" lon="-43.18825662512039"></trkpt>
			<trkpt lat="-22.92421288920497" lon="-43.18826435012678"></trkpt>
			<trkpt lat="-22.92425974909581" lon="-43.1882637268381"></trkpt>
			<trkpt lat="-22.924362811743496" lon="-43.188218485786685"></trkpt>
			<trkpt lat="-22.9244443420143" lon="-43.18817772307869"></trkpt>
			<trkpt lat="-22.924477549503603" lon="-43.188159732990385"></trkpt>
			<trkpt lat="-22.92451276722405" lon="-43.188151855664636"></trkpt>
			<trkpt lat="-22.924542838272675" lon="-43.1881517471072"></trkpt>
			<trkpt lat="-22.924582967216594" lon="-43.188154821040264"></trkpt>
			<trkpt lat="-22.924612414550698" lon="-43.18816339895497"></trkpt>
			<trkpt lat="-22.92464654696438" lon="-43.18817903060345"></trkpt>
			<trkpt lat="-22.92467875451251" lon="-43.188207946194694"></trkpt>
			<trkpt lat="-22.924706349542262" lon="-43.18824423532543"></trkpt>
			<trkpt lat="-22.924732126503063" lon="-43.18830316749877"></trkpt>
			<trkpt lat="-22.924778666365352" lon="-43.188527652911105"></trkpt>
			<trkpt lat="-22.92481294469026" lon="-43.188698585835844"></trkpt>
			<trkpt lat="-22.92483488778495" lon="-43.18881723238553"></trkpt>
			<trkpt lat="-22.924853041716432" lon="-43.188880749559004"></trkpt>
			<trkpt lat="-22.924902369237643" lon="-43.18899347541276"></trkpt>
			<trkpt lat="-22.924917847340332" lon="-43.18904415937437"></trkpt>
			<trkpt lat="-22.92492366040942" lon="-43.18909458233827"></trkpt>
			<trkpt lat="-22.92492045763663" lon="-43.1891383972544"></trkpt>
			<trkpt lat="-22.92490602589536" lon="-43.18917943876103"></trkpt>
			<trkpt lat="-22.924870883794433" lon="-43.18924161758455"></trkpt>
			<trkpt lat="-22.924752469593678" lon="-43.18943719673468"></trkpt>
			<trkpt lat="-22.924670407819548" lon="-43.18958978806956"></trkpt>
			<trkpt lat="-22.92466078652785" lon="-43.18962510944753"></trkpt>
			<trkpt lat="-22.92465762441608" lon="-43.1896645383372"></trkpt>
			<trkpt lat="-22.924660777135415" lon="-43.18970349242403"></trkpt>
			<trkpt lat="-22.924670326445867" lon="-43.18973310041034"></trkpt>
			<trkpt lat="-22.924689628105774" lon="-43.18976277354385"></trkpt>
		</trkseg>
		<trkseg>
			<trkpt lat="-22.921562935499672" lon="-43.18567843020987"></trkpt>
			<trkpt lat="-22.92157232548095" lon="-43.18562371508562"></trkpt>
			<trkpt lat="-22.921583992984214" lon="-43.18553835565625"></trkpt>
			<trkpt lat="-22.921587536629698" lon="-43.18549287983445"></trkpt>
			<trkpt lat="-22.921588391639567" lon="-43.18545709018857"></trkpt>
			<trkpt lat="-22.921578638292793" lon="-43.18540174889659"></trkpt>
			<trkpt lat="-22.921540714756095" lon="-43.185323094128286"></trkpt>
			<trkpt lat="-22.921425396594778" lon="-43.18515714640697"></trkpt>
			<trkpt lat="-22.92129027146494" lon="-43.18498064129769"></trkpt>
			<trkpt lat="-22.92117449950669" lon="-43.18484609036377"></trkpt>
			<trkpt lat="-22.921093140603805" lon="-43.18477542342081"></trkpt>
			<trkpt lat="-22.921016949435213" lon="-43.18473812607688"></trkpt>
		</trkseg>
		<trkseg>
			<trkpt lat="-22.920025020989247" lon="-43.18836728354208"></trkpt>
			<trkpt lat="-22.92011308201786" lon="-43.18841295162358"></trkpt>
			<trkpt lat="-22.92023124666717" lon="-43.18849619412458"></trkpt>
			<trkpt lat="-22.92052212647624" lon="-43.18872678259714"></trkpt>
			<trkpt lat="-22.92075837871351" lon="-43.188910428167794"></trkpt>
			<trkpt lat="-22.92098736534559" lon="-43.18909836282975"></trkpt>
			<trkpt lat="-22.921082682077188" lon="-43.18917960853666"></trkpt>
		</trkseg>
		<trkseg>
			<trkpt lat="-22.920025020989247" lon="-43.18836728354208"></trkpt>
			<trkpt lat="-22.92021200136047" lon="-43.18851117058158"></trkpt>
			<trkpt lat="-22.920502991987966" lon="-43.18874351305126"></trkpt>
			<trkpt lat="-22.92068315856417" lon="-43.188886959172464"></trkpt>
			<trkpt lat="-22.920866773794646" lon="-43.1890318211238"></trkpt>
			<trkpt lat="-22.92100033477073" lon="-43.18913494233163"></trkpt>
			<trkpt lat="-22.921082682077188" lon="-43.18917960853666"></trkpt>
		</trkseg>
		<trkseg>
			<trkpt lat="-22.92084787662757" lon="-43.18475959376895"></trkpt>
			<trkpt lat="-22.920758811839306" lon="-43.184749461913874"></trkpt>
			<trkpt lat="-22.920664233905963" lon="-43.18473103067767"></trkpt>
		</trkseg>
		<trkseg>
			<trkpt lat="-22.92084787662757" lon="-43.18475959376895"></trkpt>
			<trkpt lat="-22.920712755431794" lon="-43.18476518704876"></trkpt>
			<trkpt lat="-22.920586831766713" lon="-43.18476159988313"></trkpt>
			<trkpt lat="-22.920393395607768" lon="-43.18476115529373"></trkpt>
			<trkpt lat="-22.92017773387401" lon="-43.1847833307149"></trkpt>
			<trkpt lat="-22.920086508374396" lon="-43.18478172031136"></trkpt>
			<trkpt lat="-22.92005000327942" lon="-43.18477187279004"></trkpt>
			<trkpt lat="-22.920015201884805" lon="-43.1847530332604"></trkpt>
			<trkpt lat="-22.919981005686555" lon="-43.18473184733628"></trkpt>
			<trkpt lat="-22.91995163231133" lon="-43.18470591775869"></trkpt>
			<trkpt lat="-22.919926556341764" lon="-43.18466901141967"></trkpt>
			<trkpt lat="-22.919899028414772" lon="-43.18462287702105"></trkpt>
			<trkpt lat="-22.919851474661854" lon="-43.18449970272447"></trkpt>
			<trkpt lat="-22.91981241646371" lon="-43.18435340781165"></trkpt>
			<trkpt lat="-22.919729992957304" lon="-43.18415017500478"></trkpt>
			<trkpt lat="-22.919631148326744" lon="-43.18391664725882"></trkpt>
			<trkpt lat="-22.91955718024175" lon="-43.18375785315865"></trkpt>
			<trkpt lat="-22.919504655821168" lon="-43.18368963049443"></trkpt>
			<trkpt lat="-22.91945031090436" lon="-43.18363595649072"></trkpt>
			<trkpt lat="-22.919393878960022" lon="-43.18359713021017"></trkpt>
			<trkpt lat="-22.919313126773705" lon="-43.18354800155464"></trkpt>
			<trkpt lat="-22.919225328573898" lon="-43.18349067993751"></trkpt>
			<trkpt lat="-22.919164246855612" lon="-43.183448015387526"></trkpt>
			<trkpt lat="-22.919126995121832" lon="-43.18340444889738"></trkpt>
			<trkpt lat="-22.919072331817105" lon="-43.18333089343788"></trkpt>
			<trkpt lat="-22.91904330416947" lon="-43.18328789827946"></trkpt>
			<trkpt lat="-22.919001205559073" lon="-43.18323903484211"></trkpt>
			<trkpt lat="-22.918956820754396" lon="-43.183219251846005"></trkpt>
			<trkpt lat="-22.918928207973902" lon="-43.18321251628903"></trkpt>
			<trkpt lat="-22.91882438874729" lon="-43.18320727250439"></trkpt>
			<trkpt lat="-22.918740733718533" lon="-43.183206215850305"></trkpt>
		</trkseg>
		<trkseg>
			<trkpt lat="-22.921016949435213" lon="-43.18473812607688"></trkpt>
			<trkpt lat="-22.92108075102271" lon="-43.18475014438718"></trkpt>
			<trkpt lat="-22.921138115213687" lon="-43.184767804982066"></trkpt>
			<trkpt lat="-22.921183165220015" lon="-43.18479050386748"></trkpt>
			<trkpt lat="-22.92124048851193" lon="-43.18483614502142"></trkpt>
			<trkpt lat="-22.921344735737833" lon="-43.18496577924361"></trkpt>
			<trkpt lat="-22.921450025267266" lon="-43.185107585971764"></trkpt>
			<trkpt lat="-22.921523726370697" lon="-43.18520350807268"></trkpt>
			<trkpt lat="-22.9216242050093" lon="-43.18533533802953"></trkpt>
			<trkpt lat="-22.9216460509856" lon="-43.18538203638837"></trkpt>
			<trkpt lat="-22.921653871680427" lon="-43.18541839279358"></trkpt>
			<trkpt lat="-22.921654641263512" lon="-43.185454159454835"></trkpt>
			<trkpt lat="-22.921653231097284" lon="-43.1854808903952"></trkpt>
			<trkpt lat="-22.921646891901496" lon="-43.1855266962815"></trkpt>
			<trkpt lat="-22.921615408481454" lon="-43.18567178805703"></trkpt>
			<trkpt lat="-22.921603337177217" lon="-43.185745552280835"></trkpt>
			<trkpt lat="-22.92160463296291" lon="-43.18580363878569"></trkpt>
			<trkpt lat="-22.921612675793806" lon="-43.185851494793134"></trkpt>
			<trkpt lat="-22.92162457473151" lon="-43.1858891615298"></trkpt>
			<trkpt lat="-22.92163963945162" lon="-43.18595106184951"></trkpt>
			<trkpt lat="-22.92172925839302" lon="-43.186191443826004"></trkpt>
			<trkpt lat="-22.921764088576577" lon="-43.18630767258753"></trkpt>
			<trkpt lat="-22.921769496523773" lon="-43.18634630425185"></trkpt>
			<trkpt lat="-22.92177021582071" lon="-43.186409271378515"></trkpt>
			<trkpt lat="-22.921755558083344" lon="-43.18653317960062"></trkpt>
			<trkpt lat="-22.921728637505616" lon="-43.18669049350085"></trkpt>
			<trkpt lat="-22.921702016013654" lon="-43.1868185580646"></trkpt>
			<trkpt lat="-22.921696312152783" lon="-43.18687264123302"></trkpt>
			<trkpt lat="-22.921701275648047" lon="-43.18693555321639"></trkpt>
			<trkpt lat="-22.921709942195115" lon="-43.186967024272235"></trkpt>
			<trkpt lat="-22.921722890460327" lon="-43.18700955140203"></trkpt>
			<trkpt lat="-22.92174543891766" lon="-43.18707837016159"></trkpt>
			<trkpt lat="-22.921824065609325" lon="-43.187289457988726"></trkpt>
			<trkpt lat="-22.921860552217495" lon="-43.187376809278895"></trkpt>
			<trkpt lat="-22.921892716643015" lon="-43.18745729697231"></trkpt>
			<trkpt lat="-22.921926174017383" lon="-43.18750871553375"></trkpt>
			<trkpt lat="-22.92196527258655" lon="-43.18756386148115"></trkpt>
			<trkpt lat="-22.922021128991993" lon="-43.187631360266074"></trkpt>
			<trkpt lat="-22.922079597079104" lon="-43.18769833680161"></trkpt>
			<trkpt lat="-22.922158694915353" lon="-43.1877530474308"></trkpt>
			<trkpt lat="-22.922247860523974" lon="-43.187803628374745"></trkpt>
			<trkpt lat="-22.922308880163765" lon="-43.18782514088407"></trkpt>
			<trkpt lat="-22.92238798839217" lon="-43.18784904533338"></trkpt>
			<trkpt lat="-22.92245271242379" lon="-43.18785491210447"></trkpt>
			<trkpt lat="-22.92250060588054" lon="-43.18784979023517"></trkpt>
			<trkpt lat="-22.92254007577845" lon="-43.1878425387289"></trkpt>
			<trkpt lat="-22.922586001663188" lon="-43.187823306472005"></trkpt>
			<trkpt lat="-22.922711102734194" lon="-43.18774686822458"></trkpt>
			<trkpt lat="-22.92286958655219" lon="-43.18764415169768"></trkpt>
			<trkpt lat="-22.922933359532188" lon="-43.18760615993964"></trkpt>
			<trkpt lat="-22.92298004982861" lon="-43.18758272541944"></trkpt>
			<trkpt lat="-22.923020521966905" lon="-43.187568344500335"></trkpt>
			<trkpt lat="-22.92304816095609" lon="-43.18756095748035"></trkpt>
			<trkpt lat="-22.923124708836017" lon="-43.187542585535574"></trkpt>
			<trkpt lat="-22.92320611000962" lon="-43.187545889143095"></trkpt>
			<trkpt lat="-22.923281865001787" lon="-43.187552875576564"></trkpt>
			<trkpt lat="-22.9233384434684" lon="-43.187557095092885"></trkpt>
			<trkpt lat="-22.92341906669486" lon="-43.18756352919433"></trkpt>
			<trkpt lat="-22.923473718203834" lon="-43.187565043721705"></trkpt>
			<trkpt lat="-22.923515768246396" lon="-43.187562242506225"></trkpt>
			<trkpt lat="-22.923541556914717" lon="-43.18755897397931"></trkpt>
			<trkpt lat="-22.923571941386708" lon="-43.18754687085812"></trkpt>
			<trkpt lat="-22.923594233727385" lon="-43.18753780079431"></trkpt>
			<trkpt lat="-22.92362184986518" lon="-43.187520567400234"></trkpt>
			<trkpt lat="-22.923695527482916" lon="-43.18745631659786"></trkpt>
			<trkpt lat="-22.923743278459096" lon="-43.18740722836332"></trkpt>
			<trkpt lat="-22.92381599436782" lon="-43.18734581757371"></trkpt>
			<trkpt lat="-22.92385094773833" lon="-43.187322637042115"></trkpt>
			<trkpt lat="-22.92389445875349" lon="-43.18730548485336"></trkpt>
			<trkpt lat="-22.923948104752412" lon="-43.18729804443029"></trkpt>
			<trkpt lat="-22.924007252104293" lon="-43.18730583600927"></trkpt>
			<trkpt lat="-22.92404400423822" lon="-43.18732153057423"></trkpt>
			<trkpt lat="-22.924081891042977" lon="-43.18734169347998"></trkpt>
			<trkpt lat="-22.92414909084712" lon="-43.187398220399274"></trkpt>
			<trkpt lat="-22.924219828323288" lon="-43.18746406076725"></trkpt>
			<trkpt lat="-22.92427223091183" lon="-43.18753765071579"></trkpt>
			<trkpt lat="-22.924288322701525" lon="-43.187570777750544"></trkpt>
			<trkpt lat="-22.924298712947422" lon="-43.187610805239196"></trkpt>
			<trkpt lat="-22.924301865057704" lon="-43.18764966245708"></trkpt>
			<trkpt lat="-22.92429618795085" lon="-43.187690196551834"></trkpt>
			<trkpt lat="-22.924260051861467" lon="-43.187775981193134"></trkpt>
			<trkpt lat="-22.9242003885908" lon="-43.1878732901161"></trkpt>
			<trkpt lat="-22.92414480024922" lon="-43.18797161657575"></trkpt>
			<trkpt lat="-22.924114063221023" lon="-43.188047775374535"></trkpt>
			<trkpt lat="-22.924108924193764" lon="-43.18809600389286"></trkpt>
			<trkpt lat="-22.924108537571026" lon="-43.1881253529284"></trkpt>
			<trkpt lat="-22.92412384819714" lon="-43.18818510500454"></trkpt>
			<trkpt lat="-22.92415650660235" lon="-43.18822191226598"></trkpt>
			<trkpt lat="-22.92419302933781" lon="-43.18823332010385"></trkpt>
			<trkpt lat="-22.92423335548699" lon="-43.18823775608131"></trkpt>
			<trkpt lat="-22.924265813382203" lon="-43.18823322905522"></trkpt>
			<trkpt lat="-22.924303289610656" lon="-43.18821742530907"></trkpt>
			<trkpt lat="-22.92435690689052" lon="-43.18819165685946"></trkpt>
			<trkpt lat="-22.924442665818027" lon="-43.18814956993882"></trkpt>
			<trkpt lat="-22.924496359859056" lon="-43.188130528307376"></trkpt>
			<trkpt lat="-22.92454046159661" lon="-43.18812555490085"></trkpt>
			<trkpt lat="-22.92458177039258" lon="-43.18812909933791"></trkpt>
			<trkpt lat="-22.92462173397574" lon="-43.188141338485224"></trkpt>
			<trkpt lat="-22.924661983785818" lon="-43.18816273957936"></trkpt>
			<trkpt lat="-22.924696940578315" lon="-43.18819522497479"></trkpt>
			<trkpt lat="-22.924725890301296" lon="-43.18823149744956"></trkpt>
			<trkpt lat="-22.924754374785454" lon="-43.18829819199695"></trkpt>
			<trkpt lat="-22.92478180679651" lon="-43.18842300438836"></trkpt>
			<trkpt lat="-22.924809196117195" lon="-43.18856000391366"></trkpt>
			<trkpt lat="-22.924833282735513" lon="-43.18869236784397"></trkpt>
			<trkpt lat="-22.924856330452844" lon="-43.18881285194077"></trkpt>
			<trkpt lat="-22.924877505935235" lon="-43.18888003474756"></trkpt>
			<trkpt lat="-22.924925529550723" lon="-43.18898926690986"></trkpt>
			<trkpt lat="-22.924945881026943" lon="-43.18904758914394"></trkpt>
			<trkpt lat="-22.924949145093102" lon="-43.18909629048425"></trkpt>
			<trkpt lat="-22.92494290781452" lon="-43.18914326592808"></trkpt>
			<trkpt lat="-22.924928589729138" lon="-43.18917845645322"></trkpt>
			<trkpt lat="-22.924905619783132" lon="-43.189223021735145"></trkpt>
			<trkpt lat="-22.924885953915197" lon="-43.18925642975542"></trkpt>
			<trkpt lat="-22.924812417702952" lon="-43.1893727393431"></trkpt>
			<trkpt lat="-22.924740868634665" lon="-43.18949682077814"></trkpt>
			<trkpt lat="-22.924693168853906" lon="-43.189590167862"></trkpt>
			<trkpt lat="-22.924686780246688" lon="-43.18962388687502"></trkpt>
			<trkpt lat="-22.924685137126232" lon="-43.18965403313172"></trkpt>
			<trkpt lat="-22.924689650083614" lon="-43.18969345671633"></trkpt>
			<trkpt lat="-22.92470441534851" lon="-43.18972114316609"></trkpt>
			<trkpt lat="-22.924717047596634" lon="-43.18974398227839"></trkpt>
			<trkpt lat="-22.92476535527586" lon="-43.18976732375489"></trkpt>
			<trkpt lat="-22.924816894815343" lon="-43.18977317057083"></trkpt>
			<trkpt lat="-22.924854451566503" lon="-43.189772378611764"></trkpt>
			<trkpt lat="-22.924958688580997" lon="-43.18976680123926"></trkpt>
			<trkpt lat="-22.925022479597757" lon="-43.18976995068044"></trkpt>
			<trkpt lat="-22.925069039914582" lon="-43.18977469378085"></trkpt>
			<trkpt lat="-22.925107126034156" lon="-43.189780719407224"></trkpt>
			<trkpt lat="-22.92515527586971" lon="-43.189790219036006"></trkpt>
			<trkpt lat="-22.92520708817338" lon="-43.18980405540972"></trkpt>
			<trkpt lat="-22.925264230787395" lon="-43.189826109661766"></trkpt>
			<trkpt lat="-22.925309951355718" lon="-43.18986020811571"></trkpt>
			<trkpt lat="-22.925350187955143" lon="-43.18991222077856"></trkpt>
			<trkpt lat="-22.925379777170853" lon="-43.18997285708211"></trkpt>
			<trkpt lat="-22.925427861861174" lon="-43.190079652757554"></trkpt>
			<trkpt lat="-22.92547531579748" lon="-43.19021024577887"></trkpt>
			<trkpt lat="-22.92551130527169" lon="-43.19030170080032"></trkpt>
			<trkpt lat="-22.925648285533793" lon="-43.1906018108331"></trkpt>
			<trkpt lat="-22.925681621646987" lon="-43.19065849843433"></trkpt>
			<trkpt lat="-22.925726022703806" lon="-43.190711431308344"></trkpt>
			<trkpt lat="-22.925767708949376" lon="-43.190740125126304"></trkpt>
			<trkpt lat="-22.92591797821004" lon="-43.19081183158351"></trkpt>
			<trkpt lat="-22.92597377979546" lon="-43.19084297059813"></trkpt>
			<trkpt lat="-22.926025232841717" lon="-43.19089668706032"></trkpt>
			<trkpt lat="-22.926059972824714" lon="-43.19094185194164"></trkpt>
			<trkpt lat="-22.926143311457587" lon="-43.19109136876516"></trkpt>
			<trkpt lat="-22.92622186378821" lon="-43.191225059574"></trkpt>
			<trkpt lat="-22.926274702721017" lon="-43.1913131727797"></trkpt>
			<trkpt lat="-22.92629990623622" lon="-43.19136947988123"></trkpt>
			<trkpt lat="-22.9263134287342" lon="-43.191407030190604"></trkpt>
			<trkpt lat="-22.926326162334316" lon="-43.19145472928224"></trkpt>
			<trkpt lat="-22.92634561198496" lon="-43.19153694888704"></trkpt>
			<trkpt lat="-22.926358715323627" lon="-43.191585325428186"></trkpt>
			<trkpt lat="-22.926392591746055" lon="-43.191657799492965"></trkpt>
			<trkpt lat="-22.926428828822278" lon="-43.19169962984925"></trkpt>
			<trkpt lat="-22.9264674328342" lon="-43.1917352864351"></trkpt>
			<trkpt lat="-22.92650690791465" lon="-43.19176800738147"></trkpt>
			<trkpt lat="-22.926612639980167" lon="-43.19184615618019"></trkpt>
			<trkpt lat="-22.926992906373684" lon="-43.19213124499663"></trkpt>
			<trkpt lat="-22.927140906862437" lon="-43.19224958556297"></trkpt>
			<trkpt lat="-22.927191289106226" lon="-43.192296492489035"></trkpt>
			<trkpt lat="-22.927247924073505" lon="-43.192369152686034"></trkpt>
			<trkpt lat="-22.92726867412204" lon="-43.192399100354564"></trkpt>
			<trkpt lat="-22.92729516260457" lon="-43.19246514124246"></trkpt>
			<trkpt lat="-22.92731221801751" lon="-43.19251960817669"></trkpt>
			<trkpt lat="-22.92732712993832" lon="-43.192584145251715"></trkpt>
			<trkpt lat="-22.927343848706546" lon="-43.19273591325435"></trkpt>
			<trkpt lat="-22.92735187337879" lon="-43.1928696636198"></trkpt>
			<trkpt lat="-22.92735156191347" lon="-43.19300099001909"></trkpt>
			<trkpt lat="-22.927349504624683" lon="-43.19311371895959"></trkpt>
			<trkpt lat="-22.927361586164682" lon="-43.19316756966019"></trkpt>
			<trkpt lat="-22.927379163111667" lon="-43.193204481029795"></trkpt>
			<trkpt lat="-22.927413541755545" lon="-43.19324965175836"></trkpt>
			<trkpt lat="-22.927446151384842" lon="-43.19328226832835"></trkpt>
			<trkpt lat="-22.927556773097194" lon="-43.19338541122984"></trkpt>
			<trkpt lat="-22.927611993969084" lon="-43.193444928907866"></trkpt>
			<trkpt lat="-22.92768699417455" lon="-43.19353635641301"></trkpt>
			<trkpt lat="-22.92775616607808" lon="-43.19362357252062"></trkpt>
			<trkpt lat="-22.92780830332884" lon="-43.19367396802641"></trkpt>
			<trkpt lat="-22.927864646787373" lon="-43.19371319147337"></trkpt>
			<trkpt lat="-22.927908998368988" lon="-43.193730152065"></trkpt>
			<trkpt lat="-22.927962053372866" lon="-43.19375011748132"></trkpt>
			<trkpt lat="-22.92810459387753" lon="-43.19380136112588"></trkpt>
			<trkpt lat="-22.928457284361357" lon="-43.19391718457737"></trkpt>
			<trkpt lat="-22.928510661124783" lon="-43.19392573804245"></trkpt>
			<trkpt lat="-22.92856355942573" lon="-43.19392406132166"></trkpt>
			<trkpt lat="-22.928613387650078" lon="-43.19391433387148"></trkpt>
			<trkpt lat="-22.928646902491966" lon="-43.19390755215111"></trkpt>
			<trkpt lat="-22.92881247711888" lon="-43.19385612240842"></trkpt>
			<trkpt lat="-22.92885571009954" lon="-43.19384628762076"></trkpt>
			<trkpt lat="-22.928910740163666" lon="-43.193849359007835"></trkpt>
			<trkpt lat="-22.9289719164189" lon="-43.193868729292085"></trkpt>
			<trkpt lat="-22.929012722353306" lon="-43.193899483440376"></trkpt>
		</trkseg>
		<trkseg>
			<trkpt lat="-22.921016949435213" lon="-43.18473812607688"></trkpt>
			<trkpt lat="-22.920944298075305" lon="-43.18473392715758"></trkpt>
			<trkpt lat="-22.920838647684636" lon="-43.1847343598264"></trkpt>
			<trkpt lat="-22.92070452649909" lon="-43.18473263739145"></trkpt>
			<trkpt lat="-22.920664233905963" lon="-43.18473103067767"></trkpt>
		</trkseg>
		<trkseg>
			<trkpt lat="-22.920664233905963" lon="-43.18473103067767"></trkpt>
			<trkpt lat="-22.92061020766052" lon="-43.18472892329663"></trkpt>
			<trkpt lat="-22.920516873675663" lon="-43.18472451241513"></trkpt>
			<trkpt lat="-22.920428114191974" lon="-43.1847253056081"></trkpt>
			<trkpt lat="-22.920345310612348" lon="-43.1847336228056"></trkpt>
			<trkpt lat="-22.92022081391456" lon="-43.18473645151167"></trkpt>
			<trkpt lat="-22.920101075005352" lon="-43.184736682357645"></trkpt>
			<trkpt lat="-22.92006936710973" lon="-43.184735738882324"></trkpt>
			<trkpt lat="-22.92004254389927" lon="-43.18472751782729"></trkpt>
			<trkpt lat="-22.919996390748413" lon="-43.18469528026838"></trkpt>
			<trkpt lat="-22.919958324231743" lon="-43.18465942406422"></trkpt>
			<trkpt lat="-22.919928599808625" lon="-43.18461868062654"></trkpt>
			<trkpt lat="-22.919870985554343" lon="-43.18447643522429"></trkpt>
			<trkpt lat="-22.919831572026794" lon="-43.184330730640056"></trkpt>
			<trkpt lat="-22.919721756484893" lon="-43.18405377297895"></trkpt>
			<trkpt lat="-22.919676549012216" lon="-43.18396205562572"></trkpt>
			<trkpt lat="-22.91962909510972" lon="-43.183847653630764"></trkpt>
			<trkpt lat="-22.919581458798724" lon="-43.18374885301835"></trkpt>
			<trkpt lat="-22.91953551272208" lon="-43.18367937279913"></trkpt>
			<trkpt lat="-22.919458350789313" lon="-43.18360465432206"></trkpt>
			<trkpt lat="-22.919347205130773" lon="-43.183535166458114"></trkpt>
			<trkpt lat="-22.91925229115483" lon="-43.18347160294331"></trkpt>
			<trkpt lat="-22.919179131628958" lon="-43.18341515936663"></trkpt>
			<trkpt lat="-22.91910716809082" lon="-43.183329062979276"></trkpt>
			<trkpt lat="-22.91906712794626" lon="-43.18327851466853"></trkpt>
			<trkpt lat="-22.91903981445269" lon="-43.1832354980279"></trkpt>
			<trkpt lat="-22.919002164465542" lon="-43.183180724716074"></trkpt>
			<trkpt lat="-22.918950250717124" lon="-43.183150124074686"></trkpt>
			<trkpt lat="-22.918881476499514" lon="-43.18313758870746"></trkpt>
			<trkpt lat="-22.91878095456559" lon="-43.1831363947673"></trkpt>
			<trkpt lat="-22.91871254807823" lon="-43.18314023089934"></trkpt>
			<trkpt lat="-22.918659934181598" lon="-43.18315097351571"></trkpt>
			<trkpt lat="-22.918592183355035" lon="-43.18317264126185"></trkpt>
			<trkpt lat="-22.91854663824474" lon="-43.18318562926798"></trkpt>
		</trkseg>
		<trkseg>
			<trkpt lat="-22.918740733718533" lon="-43.183206215850305"></trkpt>
			<trkpt lat="-22.918711764891135" lon="-43.183205849031026"></trkpt>
			<trkpt lat="-22.918620756599744" lon="-43.183207453448595"></trkpt>
			<trkpt lat="-22.918561694522964" lon="-43.18321506393685"></trkpt>
			<trkpt lat="-22.91851103105621" lon="-43.18323055790439"></trkpt>
			<trkpt lat="-22.91844738117989" lon="-43.183271277782815"></trkpt>
			<trkpt lat="-22.918381070146363" lon="-43.18335560985231"></trkpt>
			<trkpt lat="-22.91829730012496" lon="-43.18350042047699"></trkpt>
			<trkpt lat="-22.91819031405601" lon="-43.18372352851273"></trkpt>
			<trkpt lat="-22.9181172361507" lon="-43.18388740109507"></trkpt>
			<trkpt lat="-22.917998005972837" lon="-43.18415327328876"></trkpt>
			<trkpt lat="-22.91790644329804" lon="-43.18431953667677"></trkpt>
			<trkpt lat="-22.917849901971824" lon="-43.18440539510613"></trkpt>
			<trkpt lat="-22.917818448910186" lon="-43.1844345724864"></trkpt>
			<trkpt lat="-22.917754381659627" lon="-43.184478319101814"></trkpt>
			<trkpt lat="-22.91767959693406" lon="-43.184508756102964"></trkpt>
			<trkpt lat="-22.917576471765027" lon="-43.18453255170013"></trkpt>
			<trkpt lat="-22.917442948803778" lon="-43.18455148872493"></trkpt>
			<trkpt lat="-22.917343006339447" lon="-43.184545703330556"></trkpt>
			<trkpt lat="-22.917211357800944" lon="-43.18453107982593"></trkpt>
			<trkpt lat="-22.917153004841097" lon="-43.18452171973025"></trkpt>
			<trkpt lat="-22.917004979197063" lon="-43.184512285199936"></trkpt>
			<trkpt lat="-22.916867682722863" lon="-43.184509240488566"></trkpt>
			<trkpt lat="-22.916755960807354" lon="-43.1845235971098"></trkpt>
			<trkpt lat="-22.916678477838648" lon="-43.184539154877534"></trkpt>
			<trkpt lat="-22.91655920661086" lon="-43.184548737996614"></trkpt>
			<trkpt lat="-22.91645912652671" lon="-43.184538860736005"></trkpt>
			<trkpt lat="-22.91637067073658" lon="-43.18450299452329"></trkpt>
			<trkpt lat="-22.91625509664692" lon="-43.18440948763978"></trkpt>
			<trkpt lat="-22.91614441242352" lon="-43.184293494476414"></trkpt>
			<trkpt lat="-22.916045860232447" lon="-43.18416437379476"></trkpt>
			<trkpt lat="-22.915998019741036" lon="-43.18405563416876"></trkpt>
			<trkpt lat="-22.915957356559" lon="-43.18393480937601"></trkpt>
			<trkpt lat="-22.9159396314523" lon="-43.1837904759995"></trkpt>
			<trkpt lat="-22.91593844194527" lon="-43.18368647767768"></trkpt>
			<trkpt lat="-22.915942622438514" lon="-43.18358620729658"></trkpt>
			<trkpt lat="-22.91595464586227" lon="-43.18349256118364"></trkpt>
			<trkpt lat="-22.91598601927777" lon="-43.18336170916051"></trkpt>
			<trkpt lat="-22.916032559427965" lon="-43.18324625196423"></trkpt>
			<trkpt lat="-22.916101010922166" lon="-43.18313586544581"></trkpt>
			<trkpt lat="-22.916241829949776" lon="-43.182973236597626"></trkpt>
			<trkpt lat="-22.916370152239818" lon="-43.18283134327191"></trkpt>
			<trkpt lat="-22.916512326688263" lon="-43.18266879239831"></trkpt>
			<trkpt lat="-22.91659527443636" lon="-43.18255470239278"></trkpt>
			<trkpt lat="-22.916660291152255" lon="-43.18242047693102"></trkpt>
			<trkpt lat="-22.916711004950095" lon="-43.18229102338243"></trkpt>
			<trkpt lat="-22.91674237799291" lon="-43.18216816441723"></trkpt>
			<trkpt lat="-22.916764684111854" lon="-43.18202622168059"></trkpt>
			<trkpt lat="-22.916769352604764" lon="-43.18191346699834"></trkpt>
			<trkpt lat="-22.916756053039965" lon="-43.18176137423961"></trkpt>
			<trkpt lat="-22.91667029025359" lon="-43.181471820194346"></trkpt>
			<trkpt lat="-22.916616306987233" lon="-43.181331481292574"></trkpt>
			<trkpt lat="-22.916541785390358" lon="-43.18119560703375"></trkpt>
			<trkpt lat="-22.916480711838567" lon="-43.181130133402476"></trkpt>
			<trkpt lat="-22.916395846679496" lon="-43.181092370781236"></trkpt>
			<trkpt lat="-22.916340441604124" lon="-43.18108024236911"></trkpt>
			<trkpt lat="-22.91626293811182" lon="-43.18108615095303"></trkpt>
			<trkpt lat="-22.916191559644453" lon="-43.18110640505069"></trkpt>
			<trkpt lat="-22.916086094578937" lon="-43.18115450741903"></trkpt>
			<trkpt lat="-22.915971707572496" lon="-43.18119629549396"></trkpt>
			<trkpt lat="-22.91585099307216" lon="-43.18121399134259"></trkpt>
			<trkpt lat="-22.915709201402596" lon="-43.18121266724836"></trkpt>
			<trkpt lat="-22.915525586412937" lon="-43.181210244027284"></trkpt>
			<trkpt lat="-22.915389680845934" lon="-43.18120240671718"></trkpt>
			<trkpt lat="-22.915228401601883" lon="-43.18118691552437"></trkpt>
			<trkpt lat="-22.915120606985926" lon="-43.18115774454708"></trkpt>
			<trkpt lat="-22.915038084943486" lon="-43.18111176093823"></trkpt>
			<trkpt lat="-22.914955034553678" lon="-43.18105126059238"></trkpt>
			<trkpt lat="-22.91485878459445" lon="-43.180949993333925"></trkpt>
			<trkpt lat="-22.914759088867275" lon="-43.18083161463491"></trkpt>
			<trkpt lat="-22.91467537289435" lon="-43.180713024135706"></trkpt>
			<trkpt lat="-22.914594532746793" lon="-43.18057733451824"></trkpt>
			<trkpt lat="-22.91454835395178" lon="-43.18049557737861"></trkpt>
			<trkpt lat="-22.914501927374655" lon="-43.180447358375666"></trkpt>
			<trkpt lat="-22.91445902899425" lon="-43.180399775927484"></trkpt>
		</trkseg>
		<trkseg>
			<trkpt lat="-22.918740733718533" lon="-43.183206215850305"></trkpt>
			<trkpt lat="-22.91868353215434" lon="-43.18319296778418"></trkpt>
			<trkpt lat="-22.91862145497148" lon="-43.18318160963642"></trkpt>
			<trkpt lat="-22.91854663824474" lon="-43.18318562926798"></trkpt>
		</trkseg>
		<trkseg>
			<trkpt lat="-22.910342605812843" lon="-43.17869551701726"></trkpt>
			<trkpt lat="-22.910309937973462" lon="-43.178689519148065"></trkpt>
			<trkpt lat="-22.910272924747293" lon="-43.17869050124771"></trkpt>
			<trkpt lat="-22.91011699122689" lon="-43.178747467065655"></trkpt>
			<trkpt lat="-22.910083714203722" lon="-43.17876711406854"></trkpt>
			<trkpt lat="-22.91004695422867" lon="-43.17880591463129"></trkpt>
			<trkpt lat="-22.910029734653932" lon="-43.17885566420414"></trkpt>
			<trkpt lat="-22.910026106185597" lon="-43.17890932702983"></trkpt>
			<trkpt lat="-22.91003449257605" lon="-43.178955517975666"></trkpt>
			<trkpt lat="-22.910060306482862" lon="-43.17900167083129"></trkpt>
			<trkpt lat="-22.910087865605433" lon="-43.17902674465203"></trkpt>
			<trkpt lat="-22.91011938691167" lon="-43.17904299300442"></trkpt>
			<trkpt lat="-22.910151612115747" lon="-43.17904977580241"></trkpt>
			<trkpt lat="-22.91018410881263" lon="-43.17904865940928"></trkpt>
			<trkpt lat="-22.910213884005202" lon="-43.17904640824742"></trkpt>
			<trkpt lat="-22.91036068915606" lon="-43.178988883785436"></trkpt>
		</trkseg>
		<trkseg>
			<trkpt lat="-22.910342605812843" lon="-43.17869551701726"></trkpt>
			<trkpt lat="-22.910376139445766" lon="-43.178713979910775"></trkpt>
			<trkpt lat="-22.910404440356935" lon="-43.17874070109364"></trkpt>
			<trkpt lat="-22.910426744164297" lon="-43.17877998037784"></trkpt>
			<trkpt lat="-22.91044031175568" lon="-43.178821227058734"></trkpt>
			<trkpt lat="-22.910441689707444" lon="-43.1788627360263"></trkpt>
			<trkpt lat="-22.910429637726573" lon="-43.178914170666054"></trkpt>
			<trkpt lat="-22.91039952740805" lon="-43.178958049033476"></trkpt>
			<trkpt lat="-22.91036068915606" lon="-43.178988883785436"></trkpt>
		</trkseg>
		<trkseg>
			<trkpt lat="-22.910342605812843" lon="-43.17869551701726"></trkpt>
			<trkpt lat="-22.91038028211977" lon="-43.17870505394669"></trkpt>
			<trkpt lat="-22.910409615253677" lon="-43.17871947947546"></trkpt>
			<trkpt lat="-22.9107318615473" lon="-43.17889648628432"></trkpt>
		</trkseg>
		<trkseg>
			<trkpt lat="-22.91036068915606" lon="-43.178988883785436"></trkpt>
			<trkpt lat="-22.910396375143396" lon="-43.178974467870574"></trkpt>
			<trkpt lat="-22.910566162136696" lon="-43.17891293214724"></trkpt>
			<trkpt lat="-22.91062716487706" lon="-43.178893497496006"></trkpt>
			<trkpt lat="-22.910689705586393" lon="-43.1788900309253"></trkpt>
			<trkpt lat="-22.9107318615473" lon="-43.17889648628432"></trkpt>
		</trkseg>
		<trkseg>
			<trkpt lat="-22.9107318615473" lon="-43.17889648628432"></trkpt>
			<trkpt lat="-22.9112301340409" lon="-43.1791702787203"></trkpt>
			<trkpt lat="-22.911254243501883" lon="-43.179185943986425"></trkpt>
			<trkpt lat="-22.91128166388263" lon="-43.17920673027795"></trkpt>
			<trkpt lat="-22.91130557030614" lon="-43.17922834382389"></trkpt>
			<trkpt lat="-22.911477832786282" lon="-43.17940628462402"></trkpt>
			<trkpt lat="-22.91154874549446" lon="-43.179484409602026"></trkpt>
			<trkpt lat="-22.911581826745234" lon="-43.17951348857294"></trkpt>
			<trkpt lat="-22.911610514299483" lon="-43.17953455083705"></trkpt>
			<trkpt lat="-22.91164321513673" lon="-43.17955102338545"></trkpt>
			<trkpt lat="-22.911679048481147" lon="-43.17955771322125"></trkpt>
			<trkpt lat="-22.911713258986204" lon="-43.17957217195787"></trkpt>
		</trkseg>
		<trkseg>
			<trkpt lat="-22.911713258986204" lon="-43.17957217195787"></trkpt>
			<trkpt lat="-22.911888532386104" lon="-43.17961275315961"></trkpt>
		</trkseg>
		<trkseg>
			<trkpt lat="-22.911713258986204" lon="-43.17957217195787"></trkpt>
			<trkpt lat="-22.913459392719147" lon="-43.18008655767327"></trkpt>
		</trkseg>
		<trkseg>
			<trkpt lat="-22.911888532386104" lon="-43.17961275315961"></trkpt>
			<trkpt lat="-22.911715851009177" lon="-43.17956190076288"></trkpt>
			<trkpt lat="-22.91168134122327" lon="-43.17955280875293"></trkpt>
			<trkpt lat="-22.911648714935858" lon="-43.179542619861095"></trkpt>
			<trkpt lat="-22.911615199250477" lon="-43.17952571561686"></trkpt>
			<trkpt lat="-22.911587332920277" lon="-43.17950542132776"></trkpt>
			<trkpt lat="-22.911557324678046" lon="-43.17947930813862"></trkpt>
			<trkpt lat="-22.911485411586238" lon="-43.17940569586743"></trkpt>
		</trkseg>
		<trkseg>
			<trkpt lat="-22.911888532386104" lon="-43.17961275315961"></trkpt>
			<trkpt lat="-22.912575974304293" lon="-43.17981519728182"></trkpt>
		</trkseg>
		<trkseg>
			<trkpt lat="-22.911888532386104" lon="-43.17961275315961"></trkpt>
			<trkpt lat="-22.91199498993277" lon="-43.179649511820955"></trkpt>
			<trkpt lat="-22.912157633939323" lon="-43.1796974453262"></trkpt>
			<trkpt lat="-22.91233577359866" lon="-43.179750142528945"></trkpt>
			<trkpt lat="-22.912575974304293" lon="-43.17981519728182"></trkpt>
		</trkseg>
		<trkseg>
			<trkpt lat="-22.912575974304293" lon="-43.17981519728182"></trkpt>
			<trkpt lat="-22.91280503902226" lon="-43.17988824493102"></trkpt>
			<trkpt lat="-22.91303101726646" lon="-43.1799547319968"></trkpt>
			<trkpt lat="-22.913268957520305" lon="-43.180024763621034"></trkpt>
			<trkpt lat="-22.91345833303312" lon="-43.180080722861305"></trkpt>
			<trkpt lat="-22.913772212353287" lon="-43.180174013705"></trkpt>
			<trkpt lat="-22.914277630854095" lon="-43.18032284639074"></trkpt>
			<trkpt lat="-22.914357091734264" lon="-43.18034596168011"></trkpt>
			<trkpt lat="-22.9143685856262" lon="-43.18035202898271"></trkpt>
			<trkpt lat="-22.914406541128212" lon="-43.180372066542624"></trkpt>
			<trkpt lat="-22.91445902899425" lon="-43.180399775927484"></trkpt>
		</trkseg>
		<trkseg>
			<trkpt lat="-22.912575974304293" lon="-43.17981519728182"></trkpt>
			<trkpt lat="-22.913461891735388" lon="-43.1800760942171"></trkpt>
		</trkseg>
		<trkseg>
			<trkpt lat="-22.91445902899425" lon="-43.180399775927484"></trkpt>
			<trkpt lat="-22.914518597560182" lon="-43.18044431001891"></trkpt>
			<trkpt lat="-22.914560495668468" lon="-43.18048342581165"></trkpt>
			<trkpt lat="-22.914613466654853" lon="-43.18056684629169"></trkpt>
			<trkpt lat="-22.91469421724182" lon="-43.18070253575427"></trkpt>
			<trkpt lat="-22.91477802279321" lon="-43.18082112642808"></trkpt>
			<trkpt lat="-22.914877628973983" lon="-43.180939506329686"></trkpt>
			<trkpt lat="-22.914973877678765" lon="-43.181040773610086"></trkpt>
			<trkpt lat="-22.915057018888422" lon="-43.18110127274456"></trkpt>
			<trkpt lat="-22.915149403435628" lon="-43.181141079571724"></trkpt>
			<trkpt lat="-22.91523556559329" lon="-43.18116586004301"></trkpt>
			<trkpt lat="-22.9154002064643" lon="-43.181175263913296"></trkpt>
			<trkpt lat="-22.915536662217047" lon="-43.181183776128705"></trkpt>
			<trkpt lat="-22.915733249602294" lon="-43.18119138769115"></trkpt>
			<trkpt lat="-22.91586958701088" lon="-43.18118956791526"></trkpt>
			<trkpt lat="-22.915999690131276" lon="-43.181163752760895"></trkpt>
			<trkpt lat="-22.916082838446798" lon="-43.18113037559915"></trkpt>
			<trkpt lat="-22.916201130529046" lon="-43.181082589527755"></trkpt>
			<trkpt lat="-22.916282093362966" lon="-43.1810633759313"></trkpt>
			<trkpt lat="-22.91635307212155" lon="-43.18106340352085"></trkpt>
			<trkpt lat="-22.916421069738053" lon="-43.18107916608182"></trkpt>
			<trkpt lat="-22.916499556219893" lon="-43.181119646280536"></trkpt>
			<trkpt lat="-22.916557401518514" lon="-43.181187211212404"></trkpt>
			<trkpt lat="-22.916631832291618" lon="-43.18132308533153"></trkpt>
			<trkpt lat="-22.9166862548507" lon="-43.1814623466137"></trkpt>
			<trkpt lat="-22.91677201765598" lon="-43.18175190068488"></trkpt>
			<trkpt lat="-22.916784267796604" lon="-43.18189893868734"></trkpt>
			<trkpt lat="-22.916779317643805" lon="-43.18201871471037"></trkpt>
			<trkpt lat="-22.916761773302834" lon="-43.182166344993284"></trkpt>
			<trkpt lat="-22.91673184338219" lon="-43.18228908803447"></trkpt>
			<trkpt lat="-22.916697267692406" lon="-43.182392590261635"></trkpt>
			<trkpt lat="-22.91662727308041" lon="-43.18254170035635"></trkpt>
			<trkpt lat="-22.916528869777494" lon="-43.18267822311699"></trkpt>
			<trkpt lat="-22.916412480808205" lon="-43.18281342623498"></trkpt>
			<trkpt lat="-22.916279895833362" lon="-43.18296171309513"></trkpt>
			<trkpt lat="-22.916139964326206" lon="-43.18312296560952"></trkpt>
			<trkpt lat="-22.91606212347573" lon="-43.18323347735297"></trkpt>
			<trkpt lat="-22.916006913486797" lon="-43.183364647257285"></trkpt>
			<trkpt lat="-22.915979741069414" lon="-43.183468049996264"></trkpt>
			<trkpt lat="-22.915965804911142" lon="-43.18358394948688"></trkpt>
			<trkpt lat="-22.915959862764076" lon="-43.183688140936994"></trkpt>
			<trkpt lat="-22.915964949989995" lon="-43.1838171423562"></trkpt>
			<trkpt lat="-22.91597675044007" lon="-43.18391719840503"></trkpt>
			<trkpt lat="-22.916013915550526" lon="-43.18404001997459"></trkpt>
			<trkpt lat="-22.91606210899378" lon="-43.18414807262357"></trkpt>
			<trkpt lat="-22.916154592890283" lon="-43.184275616812855"></trkpt>
			<trkpt lat="-22.91627994328705" lon="-43.184402723254"></trkpt>
			<trkpt lat="-22.916382684615584" lon="-43.18447963416393"></trkpt>
			<trkpt lat="-22.916470842063376" lon="-43.18452096259338"></trkpt>
			<trkpt lat="-22.91657658163911" lon="-43.18452832674089"></trkpt>
			<trkpt lat="-22.916679773296618" lon="-43.184518178867705"></trkpt>
			<trkpt lat="-22.916754186174366" lon="-43.1845026619935"></trkpt>
			<trkpt lat="-22.916897890509507" lon="-43.18448953658376"></trkpt>
			<trkpt lat="-22.91702157551217" lon="-43.18449471279746"></trkpt>
			<trkpt lat="-22.917152969017806" lon="-43.184502808240865"></trkpt>
			<trkpt lat="-22.91728882795549" lon="-43.1845223463619"></trkpt>
			<trkpt lat="-22.917394382700444" lon="-43.184529323480874"></trkpt>
			<trkpt lat="-22.917484713330253" lon="-43.18452383143687"></trkpt>
			<trkpt lat="-22.917580878936132" lon="-43.18450734231198"></trkpt>
			<trkpt lat="-22.917659222654326" lon="-43.1844880686784"></trkpt>
			<trkpt lat="-22.917747521348065" lon="-43.184454917191864"></trkpt>
			<trkpt lat="-22.917801909255797" lon="-43.184425434222824"></trkpt>
			<trkpt lat="-22.917847815987365" lon="-43.18438095311516"></trkpt>
			<trkpt lat="-22.917897348716515" lon="-43.18429811333819"></trkpt>
			<trkpt lat="-22.917975213761043" lon="-43.18415016559987"></trkpt>
			<trkpt lat="-22.918095634965077" lon="-43.18388574020755"></trkpt>
			<trkpt lat="-22.918178215607686" lon="-43.18370000165693"></trkpt>
			<trkpt lat="-22.918276997704478" lon="-43.183493964939444"></trkpt>
			<trkpt lat="-22.91835602028087" lon="-43.18335243434244"></trkpt>
			<trkpt lat="-22.9184231864745" lon="-43.18326389908361"></trkpt>
			<trkpt lat="-22.918484519452136" lon="-43.18321804320962"></trkpt>
			<trkpt lat="-22.91854663824474" lon="-43.18318562926798"></trkpt>
		</trkseg>
		<trkseg>
			<trkpt lat="-22.91980155440253" lon="-43.189705187460795"></trkpt>
			<trkpt lat="-22.919745704884484" lon="-43.189812482710316"></trkpt>
			<trkpt lat="-22.919700345046316" lon="-43.18989721659592"></trkpt>
			<trkpt lat="-22.91958710579662" lon="-43.19007156471655"></trkpt>
			<trkpt lat="-22.919452318227716" lon="-43.19027281386917"></trkpt>
			<trkpt lat="-22.91931660723901" lon="-43.19047231807894"></trkpt>
			<trkpt lat="-22.919277789624953" lon="-43.190520992133145"></trkpt>
			<trkpt lat="-22.919231446439913" lon="-43.190574933044154"></trkpt>
			<trkpt lat="-22.919174951776856" lon="-43.190641389497436"></trkpt>
			<trkpt lat="-22.919155365481156" lon="-43.19065812415306"></trkpt>
			<trkpt lat="-22.919121475002125" lon="-43.19067953476368"></trkpt>
			<trkpt lat="-22.919092294079636" lon="-43.190686355759055"></trkpt>
			<trkpt lat="-22.91905481128734" lon="-43.19068578173851"></trkpt>
			<trkpt lat="-22.919012570470805" lon="-43.190679713117746"></trkpt>
			<trkpt lat="-22.918982607682146" lon="-43.190673384754845"></trkpt>
			<trkpt lat="-22.918938857106554" lon="-43.19066158502086"></trkpt>
			<trkpt lat="-22.91870050489747" lon="-43.19057876759175"></trkpt>
			<trkpt lat="-22.91813102601151" lon="-43.19037868633031"></trkpt>
			<trkpt lat="-22.9177123170031" lon="-43.19023070772953"></trkpt>
			<trkpt lat="-22.91732196705907" lon="-43.190091029606116"></trkpt>
			<trkpt lat="-22.91729351707766" lon="-43.19008273115924"></trkpt>
			<trkpt lat="-22.917259479271767" lon="-43.190075383972044"></trkpt>
			<trkpt lat="-22.917230703275816" lon="-43.190078105870754"></trkpt>
			<trkpt lat="-22.917199990280256" lon="-43.1901010333941"></trkpt>
			<trkpt lat="-22.917175205440802" lon="-43.190137041720384"></trkpt>
			<trkpt lat="-22.917152798101753" lon="-43.190175554218875"></trkpt>
			<trkpt lat="-22.916677066523967" lon="-43.19099879361197"></trkpt>
			<trkpt lat="-22.91640710587834" lon="-43.19145490166754"></trkpt>
			<trkpt lat="-22.91639870638389" lon="-43.191470610337774"></trkpt>
			<trkpt lat="-22.91639207671075" lon="-43.191491072861204"></trkpt>
			<trkpt lat="-22.91638662339915" lon="-43.191511811204265"></trkpt>
			<trkpt lat="-22.91638505195483" lon="-43.19154829131695"></trkpt>
			<trkpt lat="-22.91638512081344" lon="-43.191617699447974"></trkpt>
			<trkpt lat="-22.916380248926583" lon="-43.19164983686531"></trkpt>
			<trkpt lat="-22.916368638192598" lon="-43.19168498758775"></trkpt>
			<trkpt lat="-22.91635572120941" lon="-43.19170845741116"></trkpt>
			<trkpt lat="-22.91631969462434" lon="-43.191732624755375"></trkpt>
			<trkpt lat="-22.91627970425378" lon="-43.191741831741965"></trkpt>
			<trkpt lat="-22.9162412892584" lon="-43.191730741358455"></trkpt>
			<trkpt lat="-22.916215329122732" lon="-43.19171110084139"></trkpt>
			<trkpt lat="-22.91620661180265" lon="-43.19169103676352"></trkpt>
			<trkpt lat="-22.91620176449083" lon="-43.191661856915765"></trkpt>
			<trkpt lat="-22.916203022040296" lon="-43.191637468719094"></trkpt>
			<trkpt lat="-22.91621760316506" lon="-43.191601498280825"></trkpt>
			<trkpt lat="-22.91623391988557" lon="-43.191575252861256"></trkpt>
			<trkpt lat="-22.916248705256102" lon="-43.19155721787395"></trkpt>
			<trkpt lat="-22.916269648420414" lon="-43.19154075715661"></trkpt>
			<trkpt lat="-22.91630396955447" lon="-43.191517490796244"></trkpt>
			<trkpt lat="-22.916330890298823" lon="-43.19150251003938"></trkpt>
			<trkpt lat="-22.916348835314846" lon="-43.19148443309513"></trkpt>
			<trkpt lat="-22.916363620657744" lon="-43.19146639672093"></trkpt>
			<trkpt lat="-22.916385728668644" lon="-43.19143325155866"></trkpt>
			<trkpt lat="-22.916654074880764" lon="-43.19098603603226"></trkpt>
			<trkpt lat="-22.917012203038734" lon="-43.19037434086256"></trkpt>
			<trkpt lat="-22.917152812345098" lon="-43.19012135240824"></trkpt>
			<trkpt lat="-22.917166962248036" lon="-43.190103031425195"></trkpt>
			<trkpt lat="-22.91717970554879" lon="-43.19008814191862"></trkpt>
			<trkpt lat="-22.917201777305582" lon="-43.19006767020119"></trkpt>
			<trkpt lat="-22.91722972389705" lon="-43.19005560068188"></trkpt>
			<trkpt lat="-22.917275807116077" lon="-43.19005810717736"></trkpt>
			<trkpt lat="-22.917482156498036" lon="-43.19012194849247"></trkpt>
			<trkpt lat="-22.917794251606946" lon="-43.1902333236846"></trkpt>
			<trkpt lat="-22.91825068085656" lon="-43.19039474138412"></trkpt>
			<trkpt lat="-22.91861361414972" lon="-43.19052172225908"></trkpt>
			<trkpt lat="-22.918914162252676" lon="-43.190626233398774"></trkpt>
			<trkpt lat="-22.918964379747685" lon="-43.19064282136353"></trkpt>
			<trkpt lat="-22.919011185976032" lon="-43.19065331261372"></trkpt>
			<trkpt lat="-22.91906281634039" lon="-43.1906591584769"></trkpt>
			<trkpt lat="-22.91910759767532" lon="-43.19065037485051"></trkpt>
			<trkpt lat="-22.919151575876302" lon="-43.190626686682435"></trkpt>
			<trkpt lat="-22.91919102143539" lon="-43.19058551099434"></trkpt>
			<trkpt lat="-22.919234177484835" lon="-43.19053717022762"></trkpt>
			<trkpt lat="-22.91931910012577" lon="-43.19042948951516"></trkpt>
			<trkpt lat="-22.91944160493106" lon="-43.1902440027619"></trkpt>
			<trkpt lat="-22.919564079492147" lon="-43.19005588357928"></trkpt>
			<trkpt lat="-22.919707366874018" lon="-43.18983980061333"></trkpt>
			<trkpt lat="-22.91980155440253" lon="-43.189705187460795"></trkpt>
		</trkseg>
		<trkseg>
			<trkpt lat="-22.91980155440253" lon="-43.189705187460795"></trkpt>
			<trkpt lat="-22.91983815173231" lon="-43.18965985730103"></trkpt>
			<trkpt lat="-22.919871360440172" lon="-43.18961827645083"></trkpt>
			<trkpt lat="-22.919949031869326" lon="-43.18954783351525"></trkpt>
			<trkpt lat="-22.92003017444214" lon="-43.18948884815364"></trkpt>
			<trkpt lat="-22.920084792491632" lon="-43.18946375012938"></trkpt>
			<trkpt lat="-22.92013736042314" lon="-43.18944881852058"></trkpt>
			<trkpt lat="-22.920195060815963" lon="-43.189448539248374"></trkpt>
			<trkpt lat="-22.920241991893807" lon="-43.18945415431709"></trkpt>
			<trkpt lat="-22.920317269457055" lon="-43.18947469885158"></trkpt>
			<trkpt lat="-22.92039893634746" lon="-43.18950130058193"></trkpt>
			<trkpt lat="-22.920470442494846" lon="-43.18953174032986"></trkpt>
			<trkpt lat="-22.920510402022465" lon="-43.189551486369794"></trkpt>
			<trkpt lat="-22.92054546220115" lon="-43.18955345821754"></trkpt>
			<trkpt lat="-22.920596970170465" lon="-43.18954867989119"></trkpt>
			<trkpt lat="-22.92064710516984" lon="-43.18952627386905"></trkpt>
			<trkpt lat="-22.920704646920367" lon="-43.189496262685495"></trkpt>
			<trkpt lat="-22.920742844967656" lon="-43.18948035211805"></trkpt>
			<trkpt lat="-22.920799734944044" lon="-43.1894722840884"></trkpt>
			<trkpt lat="-22.920849732791837" lon="-43.18947756697364"></trkpt>
			<trkpt lat="-22.92089641126627" lon="-43.189500635276666"></trkpt>
			<trkpt lat="-22.920954854908693" lon="-43.18953378454706"></trkpt>
			<trkpt lat="-22.921007178671374" lon="-43.18955297683225"></trkpt>
			<trkpt lat="-22.92103973334807" lon="-43.189556930837284"></trkpt>
			<trkpt lat="-22.9210873901774" lon="-43.189554834830304"></trkpt>
			<trkpt lat="-22.921140640694784" lon="-43.18953648251287"></trkpt>
			<trkpt lat="-22.92119979274197" lon="-43.18950508519442"></trkpt>
			<trkpt lat="-22.921252846158993" lon="-43.1894614846477"></trkpt>
			<trkpt lat="-22.921274404604375" lon="-43.18942776098782"></trkpt>
			<trkpt lat="-22.921279556029315" lon="-43.189396397635555"></trkpt>
			<trkpt lat="-22.92127951214775" lon="-43.18936091279505"></trkpt>
			<trkpt lat="-22.921268565278762" lon="-43.18933541933967"></trkpt>
			<trkpt lat="-22.921246514369418" lon="-43.18930217723779"></trkpt>
			<trkpt lat="-22.92117189672995" lon="-43.18924448111316"></trkpt>
			<trkpt lat="-22.921100435198117" lon="-43.1891925175066"></trkpt>
			<trkpt lat="-22.921082682077188" lon="-43.18917960853666"></trkpt>
		</trkseg>
		<trkseg>
			<trkpt lat="-22.93420249845822" lon="-43.199145717137085"></trkpt>
			<trkpt lat="-22.93413559895554" lon="-43.19909931528633"></trkpt>
			<trkpt lat="-22.93410215361171" lon="-43.19907255671199"></trkpt>
			<trkpt lat="-22.934057825804075" lon="-43.19902585634237"></trkpt>
			<trkpt lat="-22.934021476522155" lon="-43.1989818780179"></trkpt>
			<trkpt lat="-22.933998611482345" lon="-43.198956440979465"></trkpt>
			<trkpt lat="-22.93372353850847" lon="-43.19863755890287"></trkpt>
			<trkpt lat="-22.933579528671494" lon="-43.19846465191811"></trkpt>
			<trkpt lat="-22.933511087228077" lon="-43.198393897697485"></trkpt>
			<trkpt lat="-22.93346621704447" lon="-43.19836300024354"></trkpt>
			<trkpt lat="-22.93330309022672" lon="-43.19825625481139"></trkpt>
			<trkpt lat="-22.933256289753785" lon="-43.198222457382826"></trkpt>
			<trkpt lat="-22.933100386560703" lon="-43.198115616670435"></trkpt>
			<trkpt lat="-22.932990691638423" lon="-43.19803819427229"></trkpt>
			<trkpt lat="-22.932886315516892" lon="-43.19796801287542"></trkpt>
			<trkpt lat="-22.932789682197853" lon="-43.19787179505927"></trkpt>
			<trkpt lat="-22.93273325635001" lon="-43.197809461789724"></trkpt>
			<trkpt lat="-22.932627564079578" lon="-43.19767904557352"></trkpt>
			<trkpt lat="-22.93254685420287" lon="-43.19758554294102"></trkpt>
			<trkpt lat="-22.93245417714598" lon="-43.197487908526725"></trkpt>
			<trkpt lat="-22.93238921402726" lon="-43.19743709539634"></trkpt>
			<trkpt lat="-22.932316905381718" lon="-43.19738365010403"></trkpt>
			<trkpt lat="-22.93228058128109" lon="-43.19735780753855"></trkpt>
			<trkpt lat="-22.93216167573781" lon="-43.19727251181609"></trkpt>
			<trkpt lat="-22.932120030239144" lon="-43.197231432208305"></trkpt>
			<trkpt lat="-22.93208096565273" lon="-43.19717900974208"></trkpt>
			<trkpt lat="-22.932046307832398" lon="-43.19710917431925"></trkpt>
			<trkpt lat="-22.931990586353994" lon="-43.19698960241496"></trkpt>
			<trkpt lat="-22.93193327325093" lon="-43.19685708407567"></trkpt>
			<trkpt lat="-22.931849016236043" lon="-43.196681927066976"></trkpt>
			<trkpt lat="-22.931792260986057" lon="-43.19658264803136"></trkpt>
			<trkpt lat="-22.931735195726322" lon="-43.19647996137914"></trkpt>
			<trkpt lat="-22.93166434386554" lon="-43.1963718991216"></trkpt>
			<trkpt lat="-22.93160913498193" lon="-43.19630535864164"></trkpt>
			<trkpt lat="-22.93148810118724" lon="-43.19616793342743"></trkpt>
			<trkpt lat="-22.93143282448892" lon="-43.196095544242496"></trkpt>
			<trkpt lat="-22.931304388441948" lon="-43.195942520479285"></trkpt>
			<trkpt lat="-22.931154998240228" lon="-43.195765303726766"></trkpt>
			<trkpt lat="-22.93101924992241" lon="-43.195612377486675"></trkpt>
			<trkpt lat="-22.931001857333253" lon="-43.19559973850862"></trkpt>
			<trkpt lat="-22.930970454825584" lon="-43.1955858237721"></trkpt>
			<trkpt lat="-22.930947865257913" lon="-43.19558466034333"></trkpt>
			<trkpt lat="-22.93092538983837" lon="-43.19559353735828"></trkpt>
			<trkpt lat="-22.93089506677241" lon="-43.195611098901686"></trkpt>
			<trkpt lat="-22.930809511974722" lon="-43.19568730275532"></trkpt>
			<trkpt lat="-22.93068883674839" lon="-43.19579585464715"></trkpt>
			<trkpt lat="-22.930621155412712" lon="-43.19585554025299"></trkpt>
			<trkpt lat="-22.930592144917483" lon="-43.19587737320294"></trkpt>
			<trkpt lat="-22.93055789844834" lon="-43.19589937357829"></trkpt>
			<trkpt lat="-22.930536696807064" lon="-43.19590111725461"></trkpt>
			<trkpt lat="-22.930510069909147" lon="-43.195894255593345"></trkpt>
			<trkpt lat="-22.930470056899104" lon="-43.19587762606602"></trkpt>
			<trkpt lat="-22.930417896126432" lon="-43.19584097695645"></trkpt>
			<trkpt lat="-22.930278507193634" lon="-43.1957253431062"></trkpt>
			<trkpt lat="-22.930064684923725" lon="-43.195536209007656"></trkpt>
			<trkpt lat="-22.929994862404182" lon="-43.19547113128565"></trkpt>
			<trkpt lat="-22.92986958196655" lon="-43.195365353060865"></trkpt>
			<trkpt lat="-22.929781137422392" lon="-43.19529057714445"></trkpt>
			<trkpt lat="-22.929722035843955" lon="-43.1952312059243"></trkpt>
			<trkpt lat="-22.9296536011416" lon="-43.19516903428929"></trkpt>
			<trkpt lat="-22.929494727169768" lon="-43.19502353447088"></trkpt>
			<trkpt lat="-22.929435674286605" lon="-43.19496845306536"></trkpt>
			<trkpt lat="-22.929399389424045" lon="-43.19493022806325"></trkpt>
			<trkpt lat="-22.92938325280533" lon="-43.19490889552122"></trkpt>
			<trkpt lat="-22.92935480005312" lon="-43.19486062431473"></trkpt>
			<trkpt lat="-22.929320724472575" lon="-43.19478649295676"></trkpt>
			<trkpt lat="-22.929291856915956" lon="-43.19469376839013"></trkpt>
			<trkpt lat="-22.92924447924044" lon="-43.194498043531766"></trkpt>
			<trkpt lat="-22.929213068370306" lon="-43.19436440646077"></trkpt>
		</trkseg>
		<trkseg>
			<trkpt lat="-22.935139249783724" lon="-43.2011626546962"></trkpt>
			<trkpt lat="-22.935127898142028" lon="-43.20109328775755"></trkpt>
			<trkpt lat="-22.935112376348833" lon="-43.201014617393454"></trkpt>
			<trkpt lat="-22.9350996788079" lon="-43.20094604871679"></trkpt>
			<trkpt lat="-22.93508346990336" lon="-43.200862414680934"></trkpt>
			<trkpt lat="-22.935069367884136" lon="-43.20078947748447"></trkpt>
			<trkpt lat="-22.93505457749503" lon="-43.20071947369127"></trkpt>
			<trkpt lat="-22.93503986006296" lon="-43.20064800748786"></trkpt>
			<trkpt lat="-22.93499351495565" lon="-43.20045518398076"></trkpt>
			<trkpt lat="-22.93494702002661" lon="-43.20027308588688"></trkpt>
			<trkpt lat="-22.93488501687821" lon="-43.20004527339911"></trkpt>
			<trkpt lat="-22.9348595240614" lon="-43.19996332190875"></trkpt>
			<trkpt lat="-22.934841020088196" lon="-43.199908284411634"></trkpt>
			<trkpt lat="-22.934779672216813" lon="-43.19973827913589"></trkpt>
			<trkpt lat="-22.93476435412846" lon="-43.199701531152776"></trkpt>
			<trkpt lat="-22.93472519959304" lon="-43.199649010087285"></trkpt>
			<trkpt lat="-22.93467959147485" lon="-43.19960086343149"></trkpt>
			<trkpt lat="-22.934603649073587" lon="-43.199521627853535"></trkpt>
			<trkpt lat="-22.934551295440194" lon="-43.199467915351065"></trkpt>
			<trkpt lat="-22.934462754103688" lon="-43.199384458099985"></trkpt>
			<trkpt lat="-22.934381339898028" lon="-43.19932430631435"></trkpt>
			<trkpt lat="-22.93422241375913" lon="-43.19920570698729"></trkpt>
			<trkpt lat="-22.934130110358897" lon="-43.19914092146383"></trkpt>
			<trkpt lat="-22.934056424394818" lon="-43.199077450632984"></trkpt>
			<trkpt lat="-22.933983742445342" lon="-43.198990956571976"></trkpt>
			<trkpt lat="-22.933939365949357" lon="-43.19893996790351"></trkpt>
			<trkpt lat="-22.933843169097837" lon="-43.19882658415027"></trkpt>
			<trkpt lat="-22.933664310665815" lon="-43.198622646632636"></trkpt>
			<trkpt lat="-22.933539906519993" lon="-43.19848243433875"></trkpt>
			<trkpt lat="-22.93350092069558" lon="-43.19843702840645"></trkpt>
			<trkpt lat="-22.93344196622313" lon="-43.19839052335905"></trkpt>
			<trkpt lat="-22.933278790722547" lon="-43.198279488204946"></trkpt>
			<trkpt lat="-22.932963676208846" lon="-43.198052882912755"></trkpt>
			<trkpt lat="-22.932874122681703" lon="-43.19799966531608"></trkpt>
			<trkpt lat="-22.932755321440478" lon="-43.197883754758394"></trkpt>
			<trkpt lat="-22.932655816003106" lon="-43.19777324404907"></trkpt>
			<trkpt lat="-22.932515259409662" lon="-43.19761033567883"></trkpt>
			<trkpt lat="-22.932449484886046" lon="-43.19754383607958"></trkpt>
			<trkpt lat="-22.932414586086594" lon="-43.197508418741066"></trkpt>
			<trkpt lat="-22.932256517634112" lon="-43.19738591238895"></trkpt>
			<trkpt lat="-22.932142185129848" lon="-43.19730572355004"></trkpt>
			<trkpt lat="-22.932093777494465" lon="-43.1972576170018"></trkpt>
			<trkpt lat="-22.93205868502689" lon="-43.19720504388016"></trkpt>
			<trkpt lat="-22.931937705405932" lon="-43.196953058735595"></trkpt>
			<trkpt lat="-22.93181678839371" lon="-43.196706728250895"></trkpt>
			<trkpt lat="-22.931759086838348" lon="-43.19659566548301"></trkpt>
			<trkpt lat="-22.931672463754023" lon="-43.196450666255345"></trkpt>
			<trkpt lat="-22.93163063178675" lon="-43.19638531326602"></trkpt>
			<trkpt lat="-22.931469112005395" lon="-43.196189633708464"></trkpt>
			<trkpt lat="-22.93125041301498" lon="-43.19592890471225"></trkpt>
			<trkpt lat="-22.931140114357593" lon="-43.19579845436077"></trkpt>
			<trkpt lat="-22.93101175141427" lon="-43.19565976247169"></trkpt>
			<trkpt lat="-22.93097704840974" lon="-43.19564160118387"></trkpt>
			<trkpt lat="-22.930946627805856" lon="-43.195650583474944"></trkpt>
			<trkpt lat="-22.930912396889045" lon="-43.195673948477854"></trkpt>
			<trkpt lat="-22.9308664604814" lon="-43.19571608970299"></trkpt>
			<trkpt lat="-22.93077966837514" lon="-43.195794651130065"></trkpt>
			<trkpt lat="-22.930627895154156" lon="-43.19592418502729"></trkpt>
			<trkpt lat="-22.93057138611516" lon="-43.195973680595564"></trkpt>
			<trkpt lat="-22.93053549134374" lon="-43.19596986725265"></trkpt>
			<trkpt lat="-22.930490020968165" lon="-43.19594180666596"></trkpt>
			<trkpt lat="-22.930394926195248" lon="-43.195869944277"></trkpt>
			<trkpt lat="-22.930191938144606" lon="-43.19569646115354"></trkpt>
			<trkpt lat="-22.93006994044988" lon="-43.195593466547"></trkpt>
			<trkpt lat="-22.929861468188086" lon="-43.19541420720767"></trkpt>
			<trkpt lat="-22.929754326416152" lon="-43.195331099947204"></trkpt>
			<trkpt lat="-22.929724771721794" lon="-43.19529707579656"></trkpt>
			<trkpt lat="-22.92969641423354" lon="-43.19525728416051"></trkpt>
			<trkpt lat="-22.929653490171017" lon="-43.19521485813426"></trkpt>
			<trkpt lat="-22.929458322608493" lon="-43.19503834771413"></trkpt>
			<trkpt lat="-22.929348350397355" lon="-43.19493665758861"></trkpt>
			<trkpt lat="-22.929326692024578" lon="-43.19489823873455"></trkpt>
			<trkpt lat="-22.929310417078668" lon="-43.19487261918489"></trkpt>
			<trkpt lat="-22.929282538331854" lon="-43.19481137168884"></trkpt>
			<trkpt lat="-22.92925333496349" lon="-43.19469710653718"></trkpt>
			<trkpt lat="-22.929198775533266" lon="-43.194441616890664"></trkpt>
			<trkpt lat="-22.92919302873103" lon="-43.194412736188085"></trkpt>
			<trkpt lat="-22.92914878357379" lon="-43.19425431123693"></trkpt>
			<trkpt lat="-22.929126586865895" lon="-43.19420030103125"></trkpt>
			<trkpt lat="-22.929116030241154" lon="-43.19417733516941"></trkpt>
			<trkpt lat="-22.92907930491617" lon="-43.1941004118147"></trkpt>
			<trkpt lat="-22.92904383537551" lon="-43.19401489279448"></trkpt>
			<trkpt lat="-22.92901815604427" lon="-43.19397223866479"></trkpt>
			<trkpt lat="-22.928993886829502" lon="-43.193942533169306"></trkpt>
			<trkpt lat="-22.9289617288521" lon="-43.1939099087371"></trkpt>
			<trkpt lat="-22.928944402861912" lon="-43.19390302223388"></trkpt>
			<trkpt lat="-22.928915691673787" lon="-43.193887608261676"></trkpt>
			<trkpt lat="-22.9288891300047" lon="-43.19388659585092"></trkpt>
			<trkpt lat="-22.928858537875936" lon="-43.19388836628113"></trkpt>
			<trkpt lat="-22.928838706329742" lon="-43.19389155481129"></trkpt>
			<trkpt lat="-22.928806949057915" lon="-43.19390201779274"></trkpt>
			<trkpt lat="-22.928748743243354" lon="-43.19392141057918"></trkpt>
			<trkpt lat="-22.928685315885794" lon="-43.19394223865005"></trkpt>
			<trkpt lat="-22.928547021891493" lon="-43.193978486889"></trkpt>
			<trkpt lat="-22.928515182391923" lon="-43.19398183464342"></trkpt>
			<trkpt lat="-22.928480625638578" lon="-43.19397654135109"></trkpt>
			<trkpt lat="-22.928442048121024" lon="-43.19396701119461"></trkpt>
			<trkpt lat="-22.9284100444597" lon="-43.19395593111056"></trkpt>
			<trkpt lat="-22.92837266647047" lon="-43.19394073018029"></trkpt>
			<trkpt lat="-22.92830529680856" lon="-43.193908670935414"></trkpt>
			<trkpt lat="-22.92818791436752" lon="-43.193854266022285"></trkpt>
			<trkpt lat="-22.927994163961994" lon="-43.19378644681192"></trkpt>
		</trkseg>
		<trkseg>
			<trkpt lat="-22.9347597942609" lon="-43.19959405092594"></trkpt>
			<trkpt lat="-22.934809952857673" lon="-43.19968513267989"></trkpt>
			<trkpt lat="-22.934841706287564" lon="-43.199793618122094"></trkpt>
			<trkpt lat="-22.934897445229364" lon="-43.19997062087518"></trkpt>
			<trkpt lat="-22.934940583694836" lon="-43.200143498604476"></trkpt>
			<trkpt lat="-22.934994562270905" lon="-43.20034051140545"></trkpt>
			<trkpt lat="-22.935016772196168" lon="-43.20042767401085"></trkpt>
			<trkpt lat="-22.93504750445411" lon="-43.20055762263489"></trkpt>
			<trkpt lat="-22.935069908806778" lon="-43.2006619430219"></trkpt>
			<trkpt lat="-22.935100859522777" lon="-43.200819188142894"></trkpt>
			<trkpt lat="-22.935171089506273" lon="-43.20115930833248"></trkpt>
		</trkseg>
	</trk>
	<trk>
		<name>Estrada de Ferro do Corcovado</name>
		<trkseg>
			<trkpt lat="-22.94688483788999" lon="-43.21740804359534"></trkpt>
			<trkpt lat="-22.947012970697862" lon="-43.217419573759145"></trkpt>
			<trkpt lat="-22.947201671850614" lon="-43.2174325075737"></trkpt>
			<trkpt lat="-22.94730557760256" lon="-43.21743748440977"></trkpt>
			<trkpt lat="-22.947371498506477" lon="-43.217437303190614"></trkpt>
			<trkpt lat="-22.947445296571168" lon="-43.21743107018019"></trkpt>
			<trkpt lat="-22.94749104854251" lon="-43.21742813054895"></trkpt>
			<trkpt lat="-22.947549222630613" lon="-43.21741371807802"></trkpt>
			<trkpt lat="-22.947626539960165" lon="-43.21739105748273"></trkpt>
			<trkpt lat="-22.947704064652356" lon="-43.21735474383575"></trkpt>
			<trkpt lat="-22.94777224459013" lon="-43.21732264863323"></trkpt>
			<trkpt lat="-22.947826695510603" lon="-43.21729024426713"></trkpt>
			<trkpt lat="-22.947895552037657" lon="-43.217245951419905"></trkpt>
			<trkpt lat="-22.94806093692804" lon="-43.21714491095829"></trkpt>
			<trkpt lat="-22.948124976053208" lon="-43.21709785321098"></trkpt>
			<trkpt lat="-22.948181428155642" lon="-43.21704270408897"></trkpt>
			<trkpt lat="-22.948235788249676" lon="-43.21697012742464"></trkpt>
			<trkpt lat="-22.94828599171195" lon="-43.21690530964523"></trkpt>
			<trkpt lat="-22.948340945800144" lon="-43.21680522819803"></trkpt>
			<trkpt lat="-22.94838291643949" lon="-43.21670697462248"></trkpt>
			<trkpt lat="-22.94842424752049" lon="-43.21657596629477"></trkpt>
			<trkpt lat="-22.948462899630474" lon="-43.21643963012157"></trkpt>
			<trkpt lat="-22.948492641610148" lon="-43.21632193766903"></trkpt>
			<trkpt lat="-22.94852076639324" lon="-43.216205046901166"></trkpt>
			<trkpt lat="-22.948547884308763" lon="-43.21612707445334"></trkpt>
			<trkpt lat="-22.948574540939603" lon="-43.21605632348219"></trkpt>
			<trkpt lat="-22.94866709053066" lon="-43.215870526502414"></trkpt>
			<trkpt lat="-22.94874501712669" lon="-43.21577375152086"></trkpt>
			<trkpt lat="-22.948849259383326" lon="-43.215672047549454"></trkpt>
			<trkpt lat="-22.948929731592127" lon="-43.21561687400971"></trkpt>
			<trkpt lat="-22.949025218748567" lon="-43.21556384505174"></trkpt>
			<trkpt lat="-22.949335397023976" lon="-43.21540980815791"></trkpt>
			<trkpt lat="-22.949545872786665" lon="-43.21529530149477"></trkpt>
			<trkpt lat="-22.949584614254384" lon="-43.215271390870285"></trkpt>
			<trkpt lat="-22.949634105317184" lon="-43.21523963603183"></trkpt>
			<trkpt lat="-22.949692724081576" lon="-43.2151924531408"></trkpt>
			<trkpt lat="-22.94975741927637" lon="-43.215139631390485"></trkpt>
			<trkpt lat="-22.949821259801624" lon="-43.21506702681827"></trkpt>
			<trkpt lat="-22.949876488851288" lon="-43.21498341969467"></trkpt>
			<trkpt lat="-22.949923243640338" lon="-43.21490918660088"></trkpt>
			<trkpt lat="-22.94997108449489" lon="-43.214819141870954"></trkpt>
			<trkpt lat="-22.950011411894348" lon="-43.21475142937438"></trkpt>
			<trkpt lat="-22.950051669950028" lon="-43.214677670977416"></trkpt>
			<trkpt lat="-22.95011260705165" lon="-43.2145958412277"></trkpt>
			<trkpt lat="-22.950141620494772" lon="-43.21455801648726"></trkpt>
			<trkpt lat="-22.950165985552875" lon="-43.21453244164499"></trkpt>
			<trkpt lat="-22.95020892605672" lon="-43.21449638474485"></trkpt>
			<trkpt lat="-22.950268624593512" lon="-43.214448991000204"></trkpt>
			<trkpt lat="-22.950334960758568" lon="-43.21439751340908"></trkpt>
			<trkpt lat="-22.950387048870223" lon="-43.214355875305735"></trkpt>
			<trkpt lat="-22.950532158483494" lon="-43.21417055485916"></trkpt>
			<trkpt lat="-22.950586856345065" lon="-43.21410401679711"></trkpt>
			<trkpt lat="-22.950656978970276" lon="-43.21405999763655"></trkpt>
			<trkpt lat="-22.95075688662145" lon="-43.21404669183491"></trkpt>
			<trkpt lat="-22.950794173379325" lon="-43.214061999734874"></trkpt>
			<trkpt lat="-22.95108635857163" lon="-43.214210863882435"></trkpt>
			<trkpt lat="-22.951173671147533" lon="-43.21424989176709"></trkpt>
			<trkpt lat="-22.95123459994203" lon="-43.21425552834079"></trkpt>
			<trkpt lat="-22.95135624080598" lon="-43.214239597021155"></trkpt>
			<trkpt lat="-22.95146905814203" lon="-43.21419394373518"></trkpt>
			<trkpt lat="-22.951583416807438" lon="-43.21414076164563"></trkpt>
			<trkpt lat="-22.951667839930284" lon="-43.21409167768841"></trkpt>
			<trkpt lat="-22.95179101949483" lon="-43.21401185739716"></trkpt>
			<trkpt lat="-22.951884712547916" lon="-43.21392784028259"></trkpt>
			<trkpt lat="-22.951972560945112" lon="-43.213805969030574"></trkpt>
			<trkpt lat="-22.95203355267069" lon="-43.21371301997067"></trkpt>
			<trkpt lat="-22.95208172569907" lon="-43.21361243914608"></trkpt>
			<trkpt lat="-22.95210866211909" lon="-43.213542559448"></trkpt>
			<trkpt lat="-22.952134756055752" lon="-43.2134620628072"></trkpt>
			<trkpt lat="-22.952157306464553" lon="-43.213379565274266"></trkpt>
			<trkpt lat="-22.952169896751503" lon="-43.213302756370986"></trkpt>
			<trkpt lat="-22.95218137748231" lon="-43.21323171465489"></trkpt>
			<trkpt lat="-22.95218682158747" lon="-43.21315382946082"></trkpt>
			<trkpt lat="-22.952189648548178" lon="-43.21308416962894"></trkpt>
			<trkpt lat="-22.952153048769148" lon="-43.21287344212377"></trkpt>
			<trkpt lat="-22.95214431892428" lon="-43.212819925161035"></trkpt>
			<trkpt lat="-22.952125916546215" lon="-43.21273357793656"></trkpt>
			<trkpt lat="-22.95202322956473" lon="-43.21234790534823"></trkpt>
			<trkpt lat="-22.9520119418328" lon="-43.212307879375665"></trkpt>
			<trkpt lat="-22.951994216982992" lon="-43.21225760155775"></trkpt>
			<trkpt lat="-22.951960959942056" lon="-43.21218324786101"></trkpt>
			<trkpt lat="-22.951825875199802" lon="-43.21191179829993"></trkpt>
		</trkseg>
		<trkseg>
			<trkpt lat="-22.94688483788999" lon="-43.21740804359534"></trkpt>
			<trkpt lat="-22.94684176073803" lon="-43.217404167321774"></trkpt>
			<trkpt lat="-22.946791411283762" lon="-43.217399658933466"></trkpt>
			<trkpt lat="-22.94676365894042" lon="-43.217397097970434"></trkpt>
			<trkpt lat="-22.94659138410095" lon="-43.21738336326551"></trkpt>
			<trkpt lat="-22.94647416020968" lon="-43.21737456301045"></trkpt>
			<trkpt lat="-22.946296734670078" lon="-43.2173605062414"></trkpt>
			<trkpt lat="-22.946176837446988" lon="-43.21734686724138"></trkpt>
			<trkpt lat="-22.946112279874665" lon="-43.21733971719342"></trkpt>
			<trkpt lat="-22.94603165660322" lon="-43.21732526944554"></trkpt>
			<trkpt lat="-22.94595005652931" lon="-43.21729630715347"></trkpt>
			<trkpt lat="-22.94584805770205" lon="-43.21725210678483"></trkpt>
			<trkpt lat="-22.945810511966698" lon="-43.21722978267719"></trkpt>
			<trkpt lat="-22.945722881626473" lon="-43.21717847305186"></trkpt>
			<trkpt lat="-22.94562753295438" lon="-43.21710727508282"></trkpt>
			<trkpt lat="-22.94554577876819" lon="-43.217032388821636"></trkpt>
			<trkpt lat="-22.945449028318023" lon="-43.216916842914614"></trkpt>
			<trkpt lat="-22.94537945760503" lon="-43.2167770530211"></trkpt>
			<trkpt lat="-22.945318164630514" lon="-43.21660244322685"></trkpt>
			<trkpt lat="-22.945277020350836" lon="-43.21642084050064"></trkpt>
			<trkpt lat="-22.94525609766931" lon="-43.216286751406365"></trkpt>
			<trkpt lat="-22.945239991898777" lon="-43.21614743123505"></trkpt>
			<trkpt lat="-22.945241025220504" lon="-43.21600642481739"></trkpt>
			<trkpt lat="-22.94524554350629" lon="-43.215918316548475"></trkpt>
			<trkpt lat="-22.945293677578622" lon="-43.21577396143005"></trkpt>
			<trkpt lat="-22.945372973345787" lon="-43.21561418128044"></trkpt>
			<trkpt lat="-22.945440610205313" lon="-43.21550165006671"></trkpt>
			<trkpt lat="-22.945525373223038" lon="-43.2153943549744"></trkpt>
			<trkpt lat="-22.94564010826425" lon="-43.21527028407105"></trkpt>
			<trkpt lat="-22.94573231247383" lon="-43.21519838186512"></trkpt>
			<trkpt lat="-22.94582654317013" lon="-43.21513796042009"></trkpt>
			<trkpt lat="-22.94589941095001" lon="-43.21510511935154"></trkpt>
			<trkpt lat="-22.946001329989638" lon="-43.21502187757425"></trkpt>
			<trkpt lat="-22.946086541521414" lon="-43.214930370008425"></trkpt>
			<trkpt lat="-22.946414756812757" lon="-43.21443726265158"></trkpt>
			<trkpt lat="-22.946463593144216" lon="-43.214363491698975"></trkpt>
			<trkpt lat="-22.946527628346722" lon="-43.21426797190374"></trkpt>
			<trkpt lat="-22.946708095960783" lon="-43.214038899357426"></trkpt>
			<trkpt lat="-22.946805350094483" lon="-43.213926268988594"></trkpt>
			<trkpt lat="-22.946856618860647" lon="-43.21385197805912"></trkpt>
			<trkpt lat="-22.94689930931897" lon="-43.213777702978334"></trkpt>
			<trkpt lat="-22.94692505488821" lon="-43.213722370486295"></trkpt>
			<trkpt lat="-22.946946311325153" lon="-43.21366934039031"></trkpt>
			<trkpt lat="-22.946966364565604" lon="-43.213605697135925"></trkpt>
			<trkpt lat="-22.94698429281893" lon="-43.21352979643652"></trkpt>
			<trkpt lat="-22.94699939731926" lon="-43.21345968520235"></trkpt>
			<trkpt lat="-22.947016358133574" lon="-43.213321976855205"></trkpt>
			<trkpt lat="-22.94702579391702" lon="-43.21306131376277"></trkpt>
			<trkpt lat="-22.947035739054403" lon="-43.212998192733096"></trkpt>
			<trkpt lat="-22.94704516891286" lon="-43.2129294241327"></trkpt>
			<trkpt lat="-22.94706152163883" lon="-43.2128579315349"></trkpt>
			<trkpt lat="-22.947080261245528" lon="-43.21278991785861"></trkpt>
			<trkpt lat="-22.947104814218655" lon="-43.21272494851269"></trkpt>
			<trkpt lat="-22.94718078144552" lon="-43.212558577283765"></trkpt>
			<trkpt lat="-22.9472642073818" lon="-43.21233282518219"></trkpt>
			<trkpt lat="-22.94728831479035" lon="-43.21226035192327"></trkpt>
			<trkpt lat="-22.94731061170227" lon="-43.21217152241558"></trkpt>
			<trkpt lat="-22.94732887558514" lon="-43.21206938714141"></trkpt>
			<trkpt lat="-22.947332222783903" lon="-43.21198178192165"></trkpt>
			<trkpt lat="-22.9473326345823" lon="-43.21189811515241"></trkpt>
			<trkpt lat="-22.947330363192314" lon="-43.211832814283184"></trkpt>
			<trkpt lat="-22.947330152618914" lon="-43.21178201652881"></trkpt>
			<trkpt lat="-22.947322619879657" lon="-43.211714639411476"></trkpt>
			<trkpt lat="-22.94731050860464" lon="-43.21163357553384"></trkpt>
			<trkpt lat="-22.947291996424976" lon="-43.21154547714834"></trkpt>
			<trkpt lat="-22.94725556036161" lon="-43.21144552385324"></trkpt>
			<trkpt lat="-22.947217745265956" lon="-43.21135943375892"></trkpt>
			<trkpt lat="-22.94717238523119" lon="-43.21127695455851"></trkpt>
			<trkpt lat="-22.947133729518942" lon="-43.21121242500837"></trkpt>
			<trkpt lat="-22.946968370041642" lon="-43.21098701758818"></trkpt>
			<trkpt lat="-22.946936503336122" lon="-43.21093195449575"></trkpt>
			<trkpt lat="-22.946887922928358" lon="-43.21084415378216"></trkpt>
			<trkpt lat="-22.946837138127744" lon="-43.210737076257516"></trkpt>
			<trkpt lat="-22.94681783560466" lon="-43.21067502363991"></trkpt>
		</trkseg>
		<trkseg>
			<trkpt lat="-22.94688483788999" lon="-43.21740804359534"></trkpt>
			<trkpt lat="-22.946942396933366" lon="-43.21743151554577"></trkpt>
			<trkpt lat="-22.94700278800191" lon="-43.217445546037894"></trkpt>
			<trkpt lat="-22.94706174313423" lon="-43.21745247668588"></trkpt>
			<trkpt lat="-22.94726654383544" lon="-43.21746763789801"></trkpt>
		</trkseg>
		<trkseg>
			<trkpt lat="-22.94681783560466" lon="-43.21067502363991"></trkpt>
			<trkpt lat="-22.946800275552548" lon="-43.210575310352596"></trkpt>
			<trkpt lat="-22.946785051795228" lon="-43.21050657315238"></trkpt>
			<trkpt lat="-22.94676972115413" lon="-43.210444466993515"></trkpt>
			<trkpt lat="-22.946751195627584" lon="-43.21037928353327"></trkpt>
			<trkpt lat="-22.946597539267348" lon="-43.20991873165574"></trkpt>
			<trkpt lat="-22.946549502733884" lon="-43.20978314682244"></trkpt>
			<trkpt lat="-22.94652327040923" lon="-43.20972323298975"></trkpt>
			<trkpt lat="-22.946483220414677" lon="-43.209647217809874"></trkpt>
			<trkpt lat="-22.94645270026003" lon="-43.20959145509035"></trkpt>
		</trkseg>
		<trkseg>
			<trkpt lat="-22.94681783560466" lon="-43.21067502363991"></trkpt>
			<trkpt lat="-22.946749751708417" lon="-43.21048344077987"></trkpt>
			<trkpt lat="-22.946668423744566" lon="-43.21023849960177"></trkpt>
			<trkpt lat="-22.946570745574505" lon="-43.2099451190276"></trkpt>
			<trkpt lat="-22.946472510785576" lon="-43.20964248221989"></trkpt>
			<trkpt lat="-22.94645270026003" lon="-43.20959145509035"></trkpt>
		</trkseg>
		<trkseg>
			<trkpt lat="-22.951785054720176" lon="-43.21179142257153"></trkpt>
			<trkpt lat="-22.95175442289855" lon="-43.21166964475689"></trkpt>
			<trkpt lat="-22.951741345478514" lon="-43.211615015073235"></trkpt>
			<trkpt lat="-22.951735181366008" lon="-43.21158086928923"></trkpt>
			<trkpt lat="-22.951733666921687" lon="-43.21154266565992"></trkpt>
			<trkpt lat="-22.95173828111298" lon="-43.21149540995467"></trkpt>
			<trkpt lat="-22.951744751084007" lon="-43.21143652656326"></trkpt>
			<trkpt lat="-22.951749537971722" lon="-43.21137259379981"></trkpt>
			<trkpt lat="-22.951754986673677" lon="-43.21129519644517"></trkpt>
			<trkpt lat="-22.95176830988734" lon="-43.21113939448249"></trkpt>
		</trkseg>
		<trkseg>
			<trkpt lat="-22.94115788866791" lon="-43.19858238138538"></trkpt>
			<trkpt lat="-22.94072207541526" lon="-43.19846126976593"></trkpt>
		</trkseg>
		<trkseg>
			<trkpt lat="-22.941165030752565" lon="-43.198584208766825"></trkpt>
			<trkpt lat="-22.942010479862514" lon="-43.19875916707443"></trkpt>
			<trkpt lat="-22.94227185340106" lon="-43.198809919463415"></trkpt>
			<trkpt lat="-22.942527765294017" lon="-43.198864742084865"></trkpt>
			<trkpt lat="-22.94265160633506" lon="-43.19889167193019"></trkpt>
			<trkpt lat="-22.942746866001023" lon="-43.198938480061884"></trkpt>
			<trkpt lat="-22.942848377639624" lon="-43.19899505358256"></trkpt>
			<trkpt lat="-22.942931919256335" lon="-43.199051670214956"></trkpt>
			<trkpt lat="-22.943017454036838" lon="-43.19913273363189"></trkpt>
			<trkpt lat="-22.943111393356343" lon="-43.19923816040773"></trkpt>
			<trkpt lat="-22.943152542612587" lon="-43.19929923797501"></trkpt>
			<trkpt lat="-22.94335188842341" lon="-43.199605590980525"></trkpt>
			<trkpt lat="-22.943557552064632" lon="-43.199911666543905"></trkpt>
		</trkseg>
		<trkseg>
			<trkpt lat="-22.943554945613407" lon="-43.19992866621858"></trkpt>
			<trkpt lat="-22.943671894083074" lon="-43.20008829487649"></trkpt>
			<trkpt lat="-22.9437240659831" lon="-43.20016580282374"></trkpt>
			<trkpt lat="-22.943808103723377" lon="-43.20028208717011"></trkpt>
			<trkpt lat="-22.943857754547086" lon="-43.20034431971619"></trkpt>
			<trkpt lat="-22.943910172191416" lon="-43.20039579172217"></trkpt>
			<trkpt lat="-22.943976651052388" lon="-43.200444835761516"></trkpt>
			<trkpt lat="-22.944050047969906" lon="-43.200490862519175"></trkpt>
			<trkpt lat="-22.944124872670503" lon="-43.20053530944804"></trkpt>
			<trkpt lat="-22.94453331862536" lon="-43.20077435323581"></trkpt>
			<trkpt lat="-22.94482609659018" lon="-43.20100634753349"></trkpt>
			<trkpt lat="-22.94518896157426" lon="-43.201295236273474"></trkpt>
			<trkpt lat="-22.94527709532948" lon="-43.20135871828125"></trkpt>
			<trkpt lat="-22.94538152451937" lon="-43.20143368438199"></trkpt>
			<trkpt lat="-22.945502143134206" lon="-43.201487083708614"></trkpt>
			<trkpt lat="-22.945757383381654" lon="-43.2015623968795"></trkpt>
			<trkpt lat="-22.94587262996652" lon="-43.201619767264575"></trkpt>
			<trkpt lat="-22.945968867073315" lon="-43.20168119208831"></trkpt>
			<trkpt lat="-22.946059842669793" lon="-43.20175633659154"></trkpt>
			<trkpt lat="-22.946142810565046" lon="-43.20185011357096"></trkpt>
			<trkpt lat="-22.94622593438276" lon="-43.20195754004318"></trkpt>
			<trkpt lat="-22.946312921065598" lon="-43.20209514167093"></trkpt>
			<trkpt lat="-22.946358099268657" lon="-43.202201021132026"></trkpt>
			<trkpt lat="-22.946407146067227" lon="-43.20232957020272"></trkpt>
		</trkseg>
		<trkseg>
			<trkpt lat="-22.946407146067227" lon="-43.20232957020272"></trkpt>
			<trkpt lat="-22.946438951791286" lon="-43.20247462891929"></trkpt>
			<trkpt lat="-22.94645028494479" lon="-43.20251845483876"></trkpt>
			<trkpt lat="-22.946515442358116" lon="-43.20273795867647"></trkpt>
			<trkpt lat="-22.94660671936521" lon="-43.203062913352746"></trkpt>
		</trkseg>
		<trkseg>
			<trkpt lat="-22.946407146067227" lon="-43.20232957020272"></trkpt>
			<trkpt lat="-22.946458745808158" lon="-43.20246822412489"></trkpt>
			<trkpt lat="-22.946462099038303" lon="-43.202477249018756"></trkpt>
			<trkpt lat="-22.94651245941278" lon="-43.20260217124737"></trkpt>
			<trkpt lat="-22.946624034596415" lon="-43.202997159726614"></trkpt>
			<trkpt lat="-22.946706951160305" lon="-43.20330954906945"></trkpt>
			<trkpt lat="-22.946713706909364" lon="-43.20346751726357"></trkpt>
			<trkpt lat="-22.946714880546768" lon="-43.20361103182059"></trkpt>
			<trkpt lat="-22.946702365140357" lon="-43.20374195419957"></trkpt>
			<trkpt lat="-22.94668097686828" lon="-43.20387874606157"></trkpt>
			<trkpt lat="-22.94663972106828" lon="-43.20403140086649"></trkpt>
			<trkpt lat="-22.94649460495584" lon="-43.2042789353329"></trkpt>
			<trkpt lat="-22.946423104823573" lon="-43.20436851273764"></trkpt>
			<trkpt lat="-22.94634336869744" lon="-43.20444844710389"></trkpt>
			<trkpt lat="-22.946238472968233" lon="-43.204531541196275"></trkpt>
			<trkpt lat="-22.946086709530363" lon="-43.20463855855479"></trkpt>
			<trkpt lat="-22.945996018233455" lon="-43.20470011191311"></trkpt>
			<trkpt lat="-22.945816449170376" lon="-43.20486375638953"></trkpt>
		</trkseg>
		<trkseg>
			<trkpt lat="-22.945748742258086" lon="-43.20492949042299"></trkpt>
			<trkpt lat="-22.94565601046714" lon="-43.205042066255"></trkpt>
			<trkpt lat="-22.945607965426472" lon="-43.20511368402239"></trkpt>
			<trkpt lat="-22.945579373840253" lon="-43.20514867593716"></trkpt>
			<trkpt lat="-22.945538211950712" lon="-43.20521396286456"></trkpt>
			<trkpt lat="-22.945496958105398" lon="-43.2052791528918"></trkpt>
			<trkpt lat="-22.945471971508336" lon="-43.20536138802093"></trkpt>
			<trkpt lat="-22.94545517490032" lon="-43.20546516089552"></trkpt>
			<trkpt lat="-22.945452200807033" lon="-43.205553540430486"></trkpt>
			<trkpt lat="-22.945445299512603" lon="-43.205653965406945"></trkpt>
			<trkpt lat="-22.94545078451686" lon="-43.20578757363239"></trkpt>
			<trkpt lat="-22.945510986177084" lon="-43.20589666789839"></trkpt>
			<trkpt lat="-22.9455846403988" lon="-43.20605336478497"></trkpt>
			<trkpt lat="-22.945629756055865" lon="-43.20616197573324"></trkpt>
			<trkpt lat="-22.94567515913463" lon="-43.206255958990916"></trkpt>
			<trkpt lat="-22.945720878237985" lon="-43.206330143465074"></trkpt>
			<trkpt lat="-22.945769790635122" lon="-43.20639911791928"></trkpt>
			<trkpt lat="-22.94581956230565" lon="-43.20645628219329"></trkpt>
			<trkpt lat="-22.945875759558017" lon="-43.20651472804643"></trkpt>
			<trkpt lat="-22.94593033812625" lon="-43.206565687130336"></trkpt>
			<trkpt lat="-22.94599905707517" lon="-43.206621433080834"></trkpt>
			<trkpt lat="-22.946084069210915" lon="-43.20668057131302"></trkpt>
			<trkpt lat="-22.946288800340767" lon="-43.2068332984142"></trkpt>
			<trkpt lat="-22.946372571231013" lon="-43.206902496395244"></trkpt>
			<trkpt lat="-22.946435320162113" lon="-43.206965243817145"></trkpt>
			<trkpt lat="-22.946472069073845" lon="-43.207012829895014"></trkpt>
			<trkpt lat="-22.946514452046433" lon="-43.20707136021058"></trkpt>
			<trkpt lat="-22.946558888994026" lon="-43.20712801233185"></trkpt>
			<trkpt lat="-22.946591999411417" lon="-43.207189199868445"></trkpt>
			<trkpt lat="-22.946621877737172" lon="-43.20725998553153"></trkpt>
			<trkpt lat="-22.9466567269899" lon="-43.20733918923026"></trkpt>
			<trkpt lat="-22.946689535599848" lon="-43.20743753224897"></trkpt>
			<trkpt lat="-22.94671096070143" lon="-43.207503554234094"></trkpt>
			<trkpt lat="-22.946729205266013" lon="-43.20760774350228"></trkpt>
			<trkpt lat="-22.9467372725706" lon="-43.20770631448219"></trkpt>
			<trkpt lat="-22.94674409413964" lon="-43.20777457758202"></trkpt>
			<trkpt lat="-22.94674393745572" lon="-43.207848586913336"></trkpt>
			<trkpt lat="-22.946733301358233" lon="-43.20791434884359"></trkpt>
			<trkpt lat="-22.946720103523557" lon="-43.20797702516937"></trkpt>
			<trkpt lat="-22.94666096833995" lon="-43.208194171406014"></trkpt>
			<trkpt lat="-22.946609942624946" lon="-43.20830570910734"></trkpt>
			<trkpt lat="-22.946566542389327" lon="-43.208412854173545"></trkpt>
			<trkpt lat="-22.946516634514" lon="-43.20851950185634"></trkpt>
			<trkpt lat="-22.946464002487552" lon="-43.20863281492831"></trkpt>
			<trkpt lat="-22.94642059415014" lon="-43.20872328714273"></trkpt>
			<trkpt lat="-22.94639087194807" lon="-43.20881016694067"></trkpt>
			<trkpt lat="-22.94637303033991" lon="-43.20891756233352"></trkpt>
			<trkpt lat="-22.946363651745326" lon="-43.20899071758092"></trkpt>
			<trkpt lat="-22.94635981707546" lon="-43.20904293440039"></trkpt>
			<trkpt lat="-22.946357160244766" lon="-43.20908762753184"></trkpt>
			<trkpt lat="-22.94635937218509" lon="-43.209147564446944"></trkpt>
			<trkpt lat="-22.946360479823582" lon="-43.209221655040785"></trkpt>
			<trkpt lat="-22.946366451525954" lon="-43.209294706321884"></trkpt>
			<trkpt lat="-22.946379348236995" lon="-43.20936522958551"></trkpt>
			<trkpt lat="-22.94639709596628" lon="-43.20943344556035"></trkpt>
			<trkpt lat="-22.946416776789007" lon="-43.20948895992027"></trkpt>
			<trkpt lat="-22.946433167503216" lon="-43.209541008685036"></trkpt>
			<trkpt lat="-22.94645270026003" lon="-43.20959145509035"></trkpt>
		</trkseg>
		<trkseg>
			<trkpt lat="-22.940727683227692" lon="-43.198438298799175"></trkpt>
			<trkpt lat="-22.940708079881322" lon="-43.19854103377314"></trkpt>
			<trkpt lat="-22.940531361250383" lon="-43.19850183732875"></trkpt>
			<trkpt lat="-22.94053502448211" lon="-43.198482482600554"></trkpt>
			<trkpt lat="-22.940485685352208" lon="-43.198471533415244"></trkpt>
			<trkpt lat="-22.940501613260547" lon="-43.19838708016686"></trkpt>
			<trkpt lat="-22.940551045437655" lon="-43.19839822423108"></trkpt>
			<trkpt lat="-22.940727683227692" lon="-43.198438298799175"></trkpt>
		</trkseg>
	</trk>
</gpx>